ApplicationType,docType,impact,informative,trustiness,lastupdate,objecttype,userid,videoid
crowd-journalism-enum,classification,2.0,5.0,2,2021-03-07T21:12:52Z,Classification,epreo,2259003666846969
crowd-journalism-enum,classification,4.0,1.0,5,2020-11-30T01:59:56Z,Classification,rmorican21,8367202741728527
crowd-journalism-enum,classification,2.0,5.0,2,2020-11-30T20:09:47Z,Classification,rvasyukhnov9,1655980953500781
crowd-journalism-enum,classification,3.0,5.0,5,2021-03-04T19:33:31Z,Classification,gfold2n,6115177142599661
crowd-journalism-enum,classification,1.0,4.0,3,2020-12-15T13:04:13Z,Classification,mstennerh,8339219208568698
crowd-journalism-enum,classification,3.0,3.0,5,2021-01-13T23:35:22Z,Classification,afines1m,6583582063391828
crowd-journalism-enum,classification,2.0,3.0,4,2021-01-27T02:36:59Z,Classification,opilipyakc,8217613082908805
crowd-journalism-enum,classification,2.0,5.0,3,2021-02-15T03:30:10Z,Classification,epreo,7254889302245459
crowd-journalism-enum,classification,2.0,2.0,4,2021-03-04T04:34:46Z,Classification,ldacey2o,9664895593128210
crowd-journalism-enum,classification,1.0,3.0,4,2021-01-16T01:54:04Z,Classification,bborrow29,3139177497107032
crowd-journalism-enum,classification,4.0,3.0,4,2021-02-02T23:17:09Z,Classification,elarraway1p,6612443139019789
crowd-journalism-enum,classification,2.0,1.0,5,2020-12-28T20:04:31Z,Classification,mstennerh,8364852765509554
crowd-journalism-enum,classification,5.0,5.0,5,2021-02-04T20:22:07Z,Classification,mdeener1x,9918706414640080
crowd-journalism-enum,classification,1.0,1.0,1,2020-12-27T21:29:08Z,Classification,jrennles1b,2267300712055699
crowd-journalism-enum,classification,3.0,3.0,5,2020-11-20T20:31:07Z,Classification,akynoch1q,2132453393787256
crowd-journalism-enum,classification,3.0,2.0,2,2020-11-28T00:52:46Z,Classification,cgrahlmans2r,7652246936881139
crowd-journalism-enum,classification,5.0,3.0,3,2021-01-16T08:02:11Z,Classification,kmelrossm,8786488311243509
crowd-journalism-enum,classification,2.0,1.0,5,2020-12-31T13:56:25Z,Classification,cgrahlmans2r,8455866313969381
crowd-journalism-enum,classification,2.0,5.0,1,2021-01-27T10:27:16Z,Classification,lmacalpyne1y,7514010356735802
crowd-journalism-enum,classification,,1.0,5,2021-01-06T12:31:20Z,Classification,tnicely19,5158622224943499
crowd-journalism-enum,classification,5.0,2.0,3,2021-01-06T12:01:30Z,Classification,tbartoshevich28,2811608520483344
crowd-journalism-enum,classification,1.0,5.0,2,2021-01-22T03:45:40Z,Classification,lhumbellp,2569222812280442
crowd-journalism-enum,classification,4.0,2.0,2,2020-11-29T18:53:43Z,Classification,abasindaled,1342289380727796
crowd-journalism-enum,classification,,5.0,2,2021-01-20T09:12:41Z,Classification,mhammilla,1992075255327595
crowd-journalism-enum,classification,1.0,1.0,2,2020-11-26T07:45:23Z,Classification,tnicely19,9663186720844808
crowd-journalism-enum,classification,2.0,1.0,4,2020-12-14T19:47:44Z,Classification,epreo,7254889302245459
crowd-journalism-enum,classification,4.0,2.0,5,2021-02-11T02:31:20Z,Classification,pchadwyck2,3108136734591635
crowd-journalism-enum,classification,2.0,2.0,5,2020-12-26T09:56:16Z,Classification,cjaggers1s,1604212811155188
crowd-journalism-enum,classification,2.0,3.0,2,2021-01-01T11:40:46Z,Classification,lmacalpyne1y,1657779210883433
crowd-journalism-enum,classification,3.0,2.0,1,2021-02-25T00:55:00Z,Classification,rrumble1v,4838163460626543
crowd-journalism-enum,classification,1.0,2.0,2,2021-02-11T23:29:52Z,Classification,cwelford1w,2814754939765275
crowd-journalism-enum,classification,5.0,3.0,1,2021-01-17T06:50:01Z,Classification,ibrayson15,1366032318388843
crowd-journalism-enum,classification,,2.0,2,2020-12-06T09:10:57Z,Classification,fsirman1z,9924146059146400
crowd-journalism-enum,classification,,4.0,1,2020-12-20T17:37:51Z,Classification,kditchfield2m,5997529446997248
crowd-journalism-enum,classification,1.0,2.0,4,2021-01-06T08:16:04Z,Classification,bborrow29,8286608325800124
crowd-journalism-enum,classification,4.0,1.0,4,2021-02-24T04:09:57Z,Classification,sbostickx,5552059053755830
crowd-journalism-enum,classification,4.0,5.0,1,2021-02-24T21:34:39Z,Classification,epreo,7254889302245459
crowd-journalism-enum,classification,2.0,4.0,3,2020-12-31T13:09:44Z,Classification,ddownham1t,6626611474695941
crowd-journalism-enum,classification,2.0,1.0,1,2020-12-06T08:56:14Z,Classification,ceynon1,2358118057336692
crowd-journalism-enum,classification,5.0,,1,2021-01-07T09:00:57Z,Classification,mdeener1x,9918706414640080
crowd-journalism-enum,classification,5.0,1.0,1,2021-02-05T12:08:01Z,Classification,greah26,6389288397833455
crowd-journalism-enum,classification,5.0,2.0,5,2021-01-02T11:44:20Z,Classification,lmacalpyne1y,2260829282950026
crowd-journalism-enum,classification,2.0,1.0,2,2020-11-21T06:39:59Z,Classification,mdeener1x,6258310777376971
crowd-journalism-enum,classification,2.0,1.0,1,2021-03-05T10:56:42Z,Classification,ewillowsv,6123913228620668
crowd-journalism-enum,classification,4.0,1.0,1,2021-02-05T07:58:20Z,Classification,gfold2n,4826730496691110
crowd-journalism-enum,classification,5.0,2.0,3,2021-03-01T07:07:49Z,Classification,tcurmi1e,9363616004540080
crowd-journalism-enum,classification,5.0,,1,2021-03-15T13:06:14Z,Classification,dmeasom13,2093125938203410
crowd-journalism-enum,classification,4.0,1.0,4,2021-03-08T11:19:51Z,Classification,wweagener1i,2423309687917892
crowd-journalism-enum,classification,5.0,1.0,5,2021-01-01T08:50:16Z,Classification,beasmans,1510529632130308
crowd-journalism-enum,classification,4.0,5.0,3,2021-01-05T07:36:51Z,Classification,mdeener1x,9979145107056838
crowd-journalism-enum,classification,1.0,3.0,3,2020-12-25T21:59:27Z,Classification,greah26,3848859137461412
crowd-journalism-enum,classification,1.0,,3,2021-01-21T19:26:02Z,Classification,akynoch1q,3511109060854381
crowd-journalism-enum,classification,3.0,2.0,1,2021-01-19T18:38:56Z,Classification,tkiln2g,7189852311168896
crowd-journalism-enum,classification,5.0,1.0,4,2021-02-02T09:29:21Z,Classification,nlodot,2485091927196198
crowd-journalism-enum,classification,4.0,5.0,1,2021-02-25T02:58:01Z,Classification,hfaulconbridge2d,4391654324957643
crowd-journalism-enum,classification,2.0,3.0,5,2020-12-13T07:18:24Z,Classification,kbierman11,5319209640801382
crowd-journalism-enum,classification,3.0,,5,2021-01-15T05:41:41Z,Classification,ewillowsv,4129602012331450
crowd-journalism-enum,classification,2.0,4.0,1,2021-02-10T00:09:52Z,Classification,tnicely19,9663186720844808
crowd-journalism-enum,classification,2.0,2.0,5,2020-12-13T15:18:47Z,Classification,tfinlaisonr,6104456069880713
crowd-journalism-enum,classification,1.0,4.0,5,2021-01-29T06:53:56Z,Classification,jrennles1b,5743816672542605
crowd-journalism-enum,classification,2.0,1.0,1,2021-02-28T06:13:45Z,Classification,fmcbeith3,9350011777907868
crowd-journalism-enum,classification,,5.0,1,2020-12-15T04:18:07Z,Classification,greah26,6389288397833455
crowd-journalism-enum,classification,3.0,4.0,1,2020-11-19T13:04:12Z,Classification,ddownham1t,6626611474695941
crowd-journalism-enum,classification,,1.0,4,2021-02-03T00:06:07Z,Classification,opilipyakc,8478468288107025
crowd-journalism-enum,classification,4.0,,5,2021-03-10T04:54:19Z,Classification,lnewe4,3143081919467545
crowd-journalism-enum,classification,2.0,1.0,5,2021-03-04T21:29:22Z,Classification,nembertonf,5624854783409637
crowd-journalism-enum,classification,4.0,2.0,3,2020-12-23T20:33:04Z,Classification,wperrittg,4836906294225993
crowd-journalism-enum,classification,4.0,1.0,1,2020-12-11T00:20:53Z,Classification,tfinlaisonr,6141758573577342
crowd-journalism-enum,classification,1.0,3.0,4,2021-03-08T11:32:08Z,Classification,ddownham1t,8601617827125251
crowd-journalism-enum,classification,3.0,2.0,1,2021-01-06T00:56:14Z,Classification,srisen1d,1481612511495415
crowd-journalism-enum,classification,2.0,5.0,4,2021-03-11T18:46:53Z,Classification,aorrom2a,5837638074570977
crowd-journalism-enum,classification,5.0,3.0,2,2020-11-23T20:24:04Z,Classification,beasmans,3502664938450346
crowd-journalism-enum,classification,4.0,1.0,4,2021-01-13T11:23:58Z,Classification,tnicely19,9663186720844808
crowd-journalism-enum,classification,1.0,4.0,2,2020-12-24T07:59:48Z,Classification,mstennerh,8364852765509554
crowd-journalism-enum,classification,2.0,4.0,5,2021-03-01T14:04:36Z,Classification,tkiln2g,1777298437816498
crowd-journalism-enum,classification,1.0,4.0,4,2021-01-23T04:38:32Z,Classification,ybealsb,7450375851134791
crowd-journalism-enum,classification,5.0,2.0,4,2021-02-04T10:56:22Z,Classification,crubra14,7435328277791866
crowd-journalism-enum,classification,,5.0,2,2021-01-06T09:04:00Z,Classification,beasmans,1611622434729730
crowd-journalism-enum,classification,2.0,5.0,5,2021-01-09T20:22:13Z,Classification,aorrom2a,1303438899337139
crowd-journalism-enum,classification,4.0,5.0,2,2021-01-24T12:20:24Z,Classification,bborrow29,5935129468498179
crowd-journalism-enum,classification,3.0,1.0,3,2021-01-26T22:07:01Z,Classification,fyepiskopovj,7775529113830778
crowd-journalism-enum,classification,5.0,1.0,4,2021-01-31T01:29:24Z,Classification,ewillowsv,3080240031050403
crowd-journalism-enum,classification,2.0,2.0,2,2020-12-18T10:25:37Z,Classification,dconigsby1h,8083314093696073
crowd-journalism-enum,classification,3.0,3.0,3,2021-02-06T21:50:12Z,Classification,cwelford1w,3954387566843029
crowd-journalism-enum,classification,3.0,2.0,1,2021-02-19T08:32:14Z,Classification,jrennles1b,5966709514761221
crowd-journalism-enum,classification,2.0,1.0,2,2021-03-18T00:41:00Z,Classification,rrumble1v,7427007487486655
crowd-journalism-enum,classification,1.0,4.0,4,2020-12-06T06:28:51Z,Classification,swinship6,5782094191355710
crowd-journalism-enum,classification,3.0,1.0,4,2021-03-08T19:28:51Z,Classification,rtebb16,6834073720326419
crowd-journalism-enum,classification,3.0,5.0,4,2020-12-04T09:39:42Z,Classification,aorrom2a,6697028084397380
crowd-journalism-enum,classification,1.0,2.0,1,2021-01-04T03:37:49Z,Classification,sbostickx,1084726109899920
crowd-journalism-enum,classification,2.0,2.0,2,2021-02-02T10:25:28Z,Classification,dmeasom13,1787859526071714
crowd-journalism-enum,classification,5.0,5.0,1,2021-02-12T15:12:34Z,Classification,jagge1k,7479893089779991
crowd-journalism-enum,classification,3.0,2.0,1,2020-12-17T12:41:21Z,Classification,sjablonski17,6966865038159229
crowd-journalism-enum,classification,1.0,3.0,3,2020-11-25T23:00:53Z,Classification,sbostickx,1941317315174859
crowd-journalism-enum,classification,5.0,5.0,2,2021-02-15T09:08:14Z,Classification,kbierman11,2002440142797847
crowd-journalism-enum,classification,5.0,,2,2021-03-14T15:23:12Z,Classification,dcaspell2q,2941140141379108
crowd-journalism-enum,classification,5.0,3.0,1,2021-02-03T21:24:02Z,Classification,bblint1j,6780438547463962
crowd-journalism-enum,classification,4.0,,1,2020-12-07T11:44:48Z,Classification,cgrahlmans2r,9522974279552014
crowd-journalism-enum,classification,2.0,2.0,1,2021-03-13T17:10:23Z,Classification,fyepiskopovj,4041544399759435
crowd-journalism-enum,classification,3.0,1.0,4,2021-02-02T14:00:10Z,Classification,epreo,9671549204743516
crowd-journalism-enum,classification,2.0,3.0,5,2020-12-29T03:30:19Z,Classification,opilipyakc,8394699022056792
crowd-journalism-enum,classification,4.0,3.0,2,2020-11-26T16:52:45Z,Classification,hjewissl,9560892438049278
crowd-journalism-enum,classification,1.0,2.0,5,2021-03-18T09:36:41Z,Classification,mkeywood12,1085353265112230
crowd-journalism-enum,classification,2.0,3.0,2,2021-01-04T21:28:42Z,Classification,jrennles1b,4534850460472204
crowd-journalism-enum,classification,4.0,2.0,1,2021-02-08T07:54:17Z,Classification,lmacalpyne1y,6987817373738366
crowd-journalism-enum,classification,5.0,2.0,4,2020-12-29T13:06:14Z,Classification,rrumble1v,4003578992430256
crowd-journalism-enum,classification,5.0,5.0,5,2021-03-18T17:44:09Z,Classification,tbissiker18,1305860601252192
crowd-journalism-enum,classification,,4.0,1,2021-02-05T12:10:12Z,Classification,llefriec1u,8478118976587054
crowd-journalism-enum,classification,4.0,2.0,1,2021-02-18T21:13:38Z,Classification,tfinlaisonr,6141758573577342
crowd-journalism-enum,classification,2.0,1.0,5,2021-01-02T11:35:23Z,Classification,wweagener1i,3280586927392186
crowd-journalism-enum,classification,,3.0,3,2020-11-30T09:34:56Z,Classification,dhawkeridge1l,4495195684359661
crowd-journalism-enum,classification,5.0,4.0,2,2020-12-13T09:07:09Z,Classification,rrumble1v,5940273397900333
crowd-journalism-enum,classification,1.0,3.0,5,2021-03-04T13:34:51Z,Classification,elarraway1p,4666019533410962
crowd-journalism-enum,classification,1.0,2.0,2,2021-01-18T19:08:11Z,Classification,sbostickx,9033342571142938
crowd-journalism-enum,classification,2.0,5.0,3,2021-02-12T19:32:35Z,Classification,mstennerh,2504139141859197
crowd-journalism-enum,classification,4.0,3.0,5,2021-02-27T14:16:56Z,Classification,beasmans,2939039356715150
crowd-journalism-enum,classification,2.0,4.0,1,2021-01-16T20:02:26Z,Classification,opilipyakc,8478468288107025
crowd-journalism-enum,classification,1.0,2.0,3,2021-01-30T02:40:44Z,Classification,mdeener1x,9865467074431202
crowd-journalism-enum,classification,1.0,5.0,4,2020-12-13T17:51:41Z,Classification,tfinlaisonr,6141758573577342
crowd-journalism-enum,classification,1.0,4.0,4,2020-12-15T00:58:46Z,Classification,swinship6,9749638357991860
crowd-journalism-enum,classification,5.0,1.0,5,2020-12-07T02:29:41Z,Classification,fyepiskopovj,6492053303187359
crowd-journalism-enum,classification,5.0,,2,2021-03-13T21:01:21Z,Classification,tbartoshevich28,9500522966625764
crowd-journalism-enum,classification,3.0,,2,2020-12-08T22:25:13Z,Classification,bborrow29,8177053887898752
crowd-journalism-enum,classification,4.0,,3,2021-02-21T03:32:02Z,Classification,lbonnetteq,9757248736745180
crowd-journalism-enum,classification,1.0,3.0,2,2021-02-16T08:31:34Z,Classification,ddownham1t,6626611474695941
crowd-journalism-enum,classification,4.0,2.0,2,2020-11-27T19:16:04Z,Classification,fleipnik22,8505844436137295
crowd-journalism-enum,classification,4.0,2.0,1,2021-03-06T23:47:55Z,Classification,cwelford1w,3954387566843029
crowd-journalism-enum,classification,4.0,4.0,1,2021-01-12T09:01:37Z,Classification,dcaspell2q,6709217790944362
crowd-journalism-enum,classification,3.0,4.0,4,2020-11-25T12:31:50Z,Classification,aorrom2a,6697028084397380
crowd-journalism-enum,classification,4.0,3.0,1,2020-11-24T04:12:12Z,Classification,wzarfat2l,4914706003966667
crowd-journalism-enum,classification,1.0,1.0,5,2021-02-24T09:00:15Z,Classification,mdeener1x,2257011963815304
crowd-journalism-enum,classification,5.0,2.0,3,2020-11-26T04:14:45Z,Classification,sbostickx,5552059053755830
crowd-journalism-enum,classification,2.0,4.0,4,2021-02-16T19:07:21Z,Classification,akynoch1q,8135512476385440
crowd-journalism-enum,classification,5.0,2.0,4,2020-12-04T04:27:25Z,Classification,ghawford1f,8858085090416011
crowd-journalism-enum,classification,2.0,5.0,2,2020-12-06T00:39:28Z,Classification,tnicely19,5158622224943499
crowd-journalism-enum,classification,5.0,5.0,1,2020-11-20T10:26:11Z,Classification,dconigsby1h,5034322069679125
crowd-journalism-enum,classification,2.0,,4,2021-03-05T01:08:45Z,Classification,adargieu,5682872521896190
crowd-journalism-enum,classification,,1.0,3,2020-11-25T07:58:00Z,Classification,adargieu,6247314730295701
crowd-journalism-enum,classification,4.0,,5,2021-03-07T04:47:53Z,Classification,nrawsthorn2f,3656550881821033
crowd-journalism-enum,classification,1.0,2.0,2,2021-01-02T17:14:30Z,Classification,cwelford1w,2886960112296058
crowd-journalism-enum,classification,,1.0,3,2020-11-22T11:44:19Z,Classification,ybealsb,2410971994356154
crowd-journalism-enum,classification,5.0,3.0,3,2021-01-03T16:52:37Z,Classification,wperrittg,6733311894686210
crowd-journalism-enum,classification,5.0,2.0,3,2020-12-04T05:27:43Z,Classification,jtregea2b,4930263212843836
crowd-journalism-enum,classification,5.0,1.0,3,2021-02-20T01:53:37Z,Classification,tkiln2g,4410717970071122
crowd-journalism-enum,classification,1.0,1.0,5,2020-11-21T16:31:00Z,Classification,dhawkeridge1l,5147361856293856
crowd-journalism-enum,classification,5.0,2.0,1,2020-12-07T14:28:33Z,Classification,nembertonf,9331949292621332
crowd-journalism-enum,classification,5.0,5.0,5,2021-01-01T06:16:06Z,Classification,pchadwyck2,7089939874815372
crowd-journalism-enum,classification,2.0,4.0,2,2021-02-06T11:59:26Z,Classification,pchadwyck2,3108136734591635
crowd-journalism-enum,classification,3.0,5.0,1,2020-11-27T17:42:31Z,Classification,beasmans,8536409683946265
crowd-journalism-enum,classification,2.0,5.0,2,2020-12-22T11:01:56Z,Classification,fmcbeith3,8929921199436030
crowd-journalism-enum,classification,4.0,5.0,5,2021-01-29T06:44:48Z,Classification,tlearmond5,2805373134527322
crowd-journalism-enum,classification,1.0,4.0,5,2021-01-27T22:14:54Z,Classification,lmacalpyne1y,1657779210883433
crowd-journalism-enum,classification,5.0,2.0,5,2021-02-06T03:23:39Z,Classification,dmeasom13,2540886996923945
crowd-journalism-enum,classification,2.0,5.0,2,2021-01-24T00:50:45Z,Classification,jrennles1b,8759759438932166
crowd-journalism-enum,classification,1.0,3.0,5,2020-11-30T22:27:52Z,Classification,jagge1k,7545757271441560
crowd-journalism-enum,classification,,,4,2020-12-10T05:26:07Z,Classification,opilipyakc,6726618771268086
crowd-journalism-enum,classification,3.0,5.0,3,2021-02-18T05:50:41Z,Classification,nlodot,3767922001696477
crowd-journalism-enum,classification,3.0,1.0,3,2021-01-29T21:09:25Z,Classification,bkettowz,4637886625771728
crowd-journalism-enum,classification,2.0,1.0,2,2020-12-17T06:09:44Z,Classification,gkilbane1a,7884128445539820
crowd-journalism-enum,classification,1.0,,1,2021-02-17T16:08:43Z,Classification,ceynon1,2912328331200818
crowd-journalism-enum,classification,4.0,1.0,3,2021-02-21T18:18:22Z,Classification,jrennles1b,8759759438932166
crowd-journalism-enum,classification,3.0,2.0,4,2020-12-21T07:56:24Z,Classification,sjeffelsw,7714658676489063
crowd-journalism-enum,classification,1.0,2.0,5,2020-12-08T00:16:10Z,Classification,lbonnetteq,6937375867671395
crowd-journalism-enum,classification,4.0,4.0,3,2020-12-30T02:24:47Z,Classification,nlodot,7111241505250569
crowd-journalism-enum,classification,1.0,1.0,4,2020-12-07T04:37:02Z,Classification,opilipyakc,3837902146373801
crowd-journalism-enum,classification,5.0,2.0,3,2021-02-16T04:53:06Z,Classification,kditchfield2m,9410491228654728
crowd-journalism-enum,classification,3.0,1.0,2,2021-01-26T06:42:05Z,Classification,mstennerh,2712329950262962
crowd-journalism-enum,classification,4.0,3.0,1,2020-12-04T20:56:08Z,Classification,mdeener1x,2257011963815304
crowd-journalism-enum,classification,2.0,,3,2021-01-13T07:09:35Z,Classification,bhammerich1o,5600382224418215
crowd-journalism-enum,classification,3.0,1.0,3,2020-12-28T06:26:05Z,Classification,kbanasiki,9878268121608602
crowd-journalism-enum,classification,3.0,4.0,5,2020-12-21T23:23:32Z,Classification,wweagener1i,6530240370358693
crowd-journalism-enum,classification,2.0,5.0,2,2020-12-29T09:58:25Z,Classification,lbernardoni1c,2528951446385627
crowd-journalism-enum,classification,5.0,4.0,5,2020-12-03T02:36:09Z,Classification,cjaggers1s,2783187921024926
crowd-journalism-enum,classification,5.0,1.0,5,2021-01-20T03:16:52Z,Classification,jwindross1g,3004036150495367
crowd-journalism-enum,classification,1.0,4.0,5,2020-12-04T07:11:52Z,Classification,ceynon1,2358118057336692
crowd-journalism-enum,classification,4.0,3.0,4,2021-02-10T13:31:24Z,Classification,cjoretn,6144990250827644
crowd-journalism-enum,classification,4.0,2.0,4,2020-12-01T03:06:05Z,Classification,sjablonski17,8467615374673567
crowd-journalism-enum,classification,,4.0,3,2020-12-27T05:11:15Z,Classification,fsirman1z,6879462571172656
crowd-journalism-enum,classification,5.0,2.0,2,2020-11-21T00:25:51Z,Classification,sjablonski17,8993764205130051
crowd-journalism-enum,classification,3.0,1.0,4,2020-12-29T08:48:56Z,Classification,opilipyakc,8444867182361291
crowd-journalism-enum,classification,4.0,5.0,5,2021-02-11T06:16:07Z,Classification,swhipple10,7294869564429993
crowd-journalism-enum,classification,4.0,3.0,4,2020-12-21T20:19:29Z,Classification,beasmans,1510529632130308
crowd-journalism-enum,classification,5.0,4.0,2,2021-01-30T07:18:52Z,Classification,atape2h,6697311157066543
crowd-journalism-enum,classification,3.0,,2,2020-12-10T00:11:44Z,Classification,tnicely19,7919183629487994
crowd-journalism-enum,classification,2.0,4.0,5,2021-03-02T10:34:59Z,Classification,epreo,7254889302245459
crowd-journalism-enum,classification,5.0,,3,2020-12-06T17:26:47Z,Classification,jricharz23,2245400351348103
crowd-journalism-enum,classification,4.0,2.0,2,2021-02-10T12:31:08Z,Classification,rmorican21,5416850553335172
crowd-journalism-enum,classification,3.0,2.0,3,2021-01-05T14:49:53Z,Classification,rtuffrey2c,7993810365147890
crowd-journalism-enum,classification,,5.0,5,2021-03-05T13:05:28Z,Classification,fmcbeith3,9350011777907868
crowd-journalism-enum,classification,1.0,2.0,5,2021-03-09T20:55:02Z,Classification,nlodot,2397354939497472
crowd-journalism-enum,classification,5.0,5.0,5,2021-01-09T00:15:22Z,Classification,nembertonf,7594813545780103
crowd-journalism-enum,classification,1.0,5.0,2,2021-02-08T02:30:18Z,Classification,srisen1d,5417136728655621
crowd-journalism-enum,classification,3.0,3.0,1,2021-01-25T03:55:10Z,Classification,fyepiskopovj,8376693695084404
crowd-journalism-enum,classification,4.0,3.0,2,2020-12-05T23:30:17Z,Classification,jwindross1g,4324110182295813
crowd-journalism-enum,classification,4.0,5.0,3,2021-02-11T23:38:45Z,Classification,mdeener1x,2257011963815304
crowd-journalism-enum,classification,5.0,5.0,2,2021-02-18T16:14:32Z,Classification,hjewissl,1811211433886566
crowd-journalism-enum,classification,1.0,5.0,4,2020-12-05T14:08:44Z,Classification,beasmans,1622484911179766
crowd-journalism-enum,classification,2.0,2.0,2,2020-12-22T17:30:06Z,Classification,sbostickx,5552059053755830
crowd-journalism-enum,classification,4.0,5.0,4,2020-11-24T14:12:55Z,Classification,beasmans,9221914751518686
crowd-journalism-enum,classification,1.0,3.0,1,2021-01-20T07:20:15Z,Classification,mdeener1x,3313654274471363
crowd-journalism-enum,classification,5.0,5.0,5,2021-03-06T19:50:20Z,Classification,dconigsby1h,5034322069679125
crowd-journalism-enum,classification,5.0,2.0,5,2020-12-14T00:07:37Z,Classification,aorrom2a,2590911056786209
crowd-journalism-enum,classification,4.0,4.0,2,2021-02-22T01:35:46Z,Classification,epreo,7254889302245459
crowd-journalism-enum,classification,2.0,3.0,5,2020-12-07T21:17:43Z,Classification,fainslie8,8277386794188144
crowd-journalism-enum,classification,5.0,5.0,5,2021-02-18T02:45:22Z,Classification,kbanasiki,3454963703187729
crowd-journalism-enum,classification,2.0,4.0,4,2021-01-19T19:18:12Z,Classification,rrumble1v,4838163460626543
crowd-journalism-enum,classification,4.0,3.0,2,2021-02-13T07:40:05Z,Classification,owissbey2e,8291883586452396
crowd-journalism-enum,classification,5.0,2.0,2,2021-03-03T09:51:57Z,Classification,dhawkeridge1l,3496658800468004
crowd-journalism-enum,classification,3.0,2.0,3,2021-03-16T22:01:52Z,Classification,owissbey2e,1776249232022364
crowd-journalism-enum,classification,4.0,2.0,4,2021-01-09T21:42:02Z,Classification,tkiln2g,3234449519679103
crowd-journalism-enum,classification,4.0,,4,2021-01-22T03:07:25Z,Classification,beasmans,6718036194337756
crowd-journalism-enum,classification,2.0,2.0,3,2021-01-24T23:42:21Z,Classification,tkiln2g,3234449519679103
crowd-journalism-enum,classification,4.0,3.0,5,2021-03-09T07:37:40Z,Classification,cjaggers1s,3749316123080121
crowd-journalism-enum,classification,1.0,4.0,4,2020-12-16T18:02:09Z,Classification,username,9381294889891912
crowd-journalism-enum,classification,3.0,,2,2021-03-16T03:54:03Z,Classification,akynoch1q,8135512476385440
crowd-journalism-enum,classification,2.0,3.0,2,2021-01-01T08:26:20Z,Classification,ykerink,7651961517316643
crowd-journalism-enum,classification,3.0,2.0,1,2020-12-24T11:43:42Z,Classification,jrennles1b,2267300712055699
crowd-journalism-enum,classification,1.0,2.0,1,2020-12-18T02:33:15Z,Classification,glewtey2j,9579547582148192
crowd-journalism-enum,classification,1.0,4.0,5,2021-02-27T22:51:38Z,Classification,ybealsb,1970905250790673
crowd-journalism-enum,classification,2.0,3.0,1,2021-03-13T12:53:31Z,Classification,sjeffelsw,1111339397555854
crowd-journalism-enum,classification,4.0,,2,2020-12-08T00:19:31Z,Classification,mhammilla,2019973146228120
crowd-journalism-enum,classification,,3.0,1,2020-12-25T10:40:32Z,Classification,adargieu,5682872521896190
crowd-journalism-enum,classification,2.0,4.0,4,2020-12-23T00:11:30Z,Classification,cgrahlmans2r,8455866313969381
crowd-journalism-enum,classification,2.0,5.0,3,2021-02-08T11:22:32Z,Classification,jrennles1b,7836725375608209
crowd-journalism-enum,classification,1.0,5.0,1,2021-02-16T12:50:57Z,Classification,akynoch1q,9611773085338394
crowd-journalism-enum,classification,1.0,3.0,5,2020-11-21T19:44:21Z,Classification,sbostickx,2669041437269475
crowd-journalism-enum,classification,3.0,1.0,5,2020-12-13T02:15:15Z,Classification,uvalentim7,6581392052638847
crowd-journalism-enum,classification,,,3,2020-12-12T05:25:22Z,Classification,ceynon1,9733056128839268
crowd-journalism-enum,classification,4.0,1.0,1,2020-12-08T09:49:07Z,Classification,owissbey2e,8291883586452396
crowd-journalism-enum,classification,3.0,2.0,4,2021-03-10T14:38:49Z,Classification,bborrow29,6660421318623122
crowd-journalism-enum,classification,3.0,,1,2021-01-13T23:40:10Z,Classification,anorley24,7744352934511199
crowd-journalism-enum,classification,1.0,4.0,2,2020-12-16T01:01:16Z,Classification,swinship6,2029138836193201
crowd-journalism-enum,classification,5.0,2.0,3,2021-02-08T07:49:33Z,Classification,beasmans,3493865081613133
crowd-journalism-enum,classification,4.0,3.0,3,2021-01-26T09:41:11Z,Classification,fleipnik22,7808360929788560
crowd-journalism-enum,classification,,2.0,3,2020-12-09T23:33:20Z,Classification,hfaulconbridge2d,4391654324957643
crowd-journalism-enum,classification,1.0,4.0,2,2021-01-05T16:34:14Z,Classification,kbierman11,6414449198611878
crowd-journalism-enum,classification,4.0,2.0,5,2021-02-16T09:52:14Z,Classification,nlodot,3454976471060035
crowd-journalism-enum,classification,3.0,5.0,4,2021-02-18T13:50:14Z,Classification,mdeener1x,9918706414640080
crowd-journalism-enum,classification,4.0,5.0,4,2020-11-23T18:13:04Z,Classification,bhammerich1o,6852044651952466
crowd-journalism-enum,classification,1.0,4.0,3,2021-03-11T12:32:28Z,Classification,nlodot,3600925637788404
crowd-journalism-enum,classification,5.0,1.0,4,2021-02-19T03:53:50Z,Classification,nlodot,3767922001696477
crowd-journalism-enum,classification,1.0,1.0,4,2020-12-10T18:13:32Z,Classification,tcurmi1e,1585047487357024
crowd-journalism-enum,classification,4.0,1.0,3,2021-01-21T10:47:02Z,Classification,rtuffrey2c,1784227337130648
crowd-journalism-enum,classification,3.0,4.0,5,2021-03-07T11:42:24Z,Classification,anorley24,3720561012917584
crowd-journalism-enum,classification,2.0,4.0,2,2021-02-19T14:29:40Z,Classification,ldacey2o,9948076688182336
crowd-journalism-enum,classification,,1.0,2,2020-12-23T02:53:48Z,Classification,rtuffrey2c,7993810365147890
crowd-journalism-enum,classification,,2.0,3,2020-11-25T09:06:49Z,Classification,anorley24,2842345336396451
crowd-journalism-enum,classification,4.0,,1,2020-12-27T20:53:20Z,Classification,rtuffrey2c,6176668413573766
crowd-journalism-enum,classification,4.0,1.0,4,2021-01-14T07:07:10Z,Classification,owissbey2e,8291883586452396
crowd-journalism-enum,classification,1.0,3.0,3,2020-12-23T09:05:20Z,Classification,jrennles1b,9824326399372628
crowd-journalism-enum,classification,4.0,,3,2020-12-15T16:51:34Z,Classification,hjewissl,1811211433886566
crowd-journalism-enum,classification,,3.0,4,2020-12-27T18:47:24Z,Classification,jwindross1g,4324110182295813
crowd-journalism-enum,classification,5.0,3.0,3,2020-12-09T03:36:53Z,Classification,hfaulconbridge2d,3431239201527539
crowd-journalism-enum,classification,3.0,1.0,4,2021-01-21T18:18:19Z,Classification,aorrom2a,5755967042065303
crowd-journalism-enum,classification,1.0,1.0,5,2021-03-16T06:23:45Z,Classification,hfaulconbridge2d,3431239201527539
crowd-journalism-enum,classification,1.0,2.0,4,2020-12-02T03:31:57Z,Classification,ykerink,9829017661651310
crowd-journalism-enum,classification,4.0,5.0,2,2021-01-10T11:47:39Z,Classification,cjaggers1s,1604212811155188
crowd-journalism-enum,classification,5.0,2.0,4,2021-01-20T06:16:15Z,Classification,jagge1k,4631877982586239
crowd-journalism-enum,classification,5.0,3.0,5,2021-01-03T03:02:20Z,Classification,srisen1d,4021505537648671
crowd-journalism-enum,classification,2.0,3.0,2,2021-03-12T17:59:44Z,Classification,tnicely19,5158622224943499
crowd-journalism-enum,classification,1.0,4.0,4,2021-02-11T14:29:30Z,Classification,kbanasiki,3986582319686907
crowd-journalism-enum,classification,1.0,3.0,4,2020-12-28T21:35:14Z,Classification,hfaulconbridge2d,1816245511381880
crowd-journalism-enum,classification,2.0,1.0,3,2021-01-05T12:36:41Z,Classification,vscholery,3149464270158194
crowd-journalism-enum,classification,3.0,5.0,3,2021-03-03T10:08:41Z,Classification,mstennerh,8339219208568698
crowd-journalism-enum,classification,4.0,1.0,1,2020-11-26T13:09:44Z,Classification,nembertonf,5669691764693958
crowd-journalism-enum,classification,1.0,,4,2021-03-01T03:00:33Z,Classification,mstennerh,7501645983019562
crowd-journalism-enum,classification,2.0,4.0,1,2021-01-19T03:15:11Z,Classification,rmeale0,8897303193200873
crowd-journalism-enum,classification,1.0,3.0,4,2020-11-28T23:04:41Z,Classification,fsirman1z,6879462571172656
crowd-journalism-enum,classification,5.0,1.0,1,2021-03-02T09:22:17Z,Classification,nspanswick2k,2869457288357264
crowd-journalism-enum,classification,2.0,5.0,1,2020-12-22T05:22:29Z,Classification,nlodot,3795911523895965
crowd-journalism-enum,classification,4.0,2.0,1,2020-12-14T15:29:40Z,Classification,nrawsthorn2f,4490494435817830
crowd-journalism-enum,classification,1.0,4.0,3,2021-01-31T12:44:54Z,Classification,elarraway1p,9872626007520378
crowd-journalism-enum,classification,1.0,4.0,5,2020-11-28T19:42:17Z,Classification,lnewe4,1374088986368790
crowd-journalism-enum,classification,5.0,1.0,5,2020-12-04T16:55:38Z,Classification,ykerink,1543415692611916
crowd-journalism-enum,classification,2.0,3.0,1,2020-12-29T16:49:14Z,Classification,jagge1k,5784000059332046
crowd-journalism-enum,classification,3.0,3.0,1,2021-02-24T10:16:59Z,Classification,hjewissl,4404705470357769
crowd-journalism-enum,classification,5.0,2.0,1,2021-03-16T21:15:00Z,Classification,lmacalpyne1y,1657779210883433
crowd-journalism-enum,classification,2.0,5.0,3,2021-01-17T11:31:17Z,Classification,bblint1j,5675474684067968
crowd-journalism-enum,classification,,1.0,4,2020-12-20T00:17:49Z,Classification,ddownham1t,6626611474695941
crowd-journalism-enum,classification,4.0,1.0,5,2021-02-01T16:13:14Z,Classification,fmcbeith3,3489751615648677
crowd-journalism-enum,classification,1.0,3.0,2,2021-02-23T16:45:14Z,Classification,lmacduffie2i,2576590510147064
crowd-journalism-enum,classification,3.0,3.0,4,2020-12-03T20:18:00Z,Classification,beasmans,2912375230052649
crowd-journalism-enum,classification,4.0,5.0,1,2021-01-02T08:54:37Z,Classification,glewtey2j,9579547582148192
crowd-journalism-enum,classification,2.0,,1,2021-03-09T06:01:08Z,Classification,mkeywood12,5790576333074290
crowd-journalism-enum,classification,,5.0,4,2020-11-19T02:02:37Z,Classification,fleipnik22,8505844436137295
crowd-journalism-enum,classification,4.0,4.0,1,2021-02-16T07:23:13Z,Classification,srisen1d,5254531558750785
crowd-journalism-enum,classification,4.0,3.0,2,2020-12-19T06:37:36Z,Classification,fyepiskopovj,4754042961036823
crowd-journalism-enum,classification,5.0,2.0,2,2020-12-28T11:29:54Z,Classification,jrennles1b,8759759438932166
crowd-journalism-enum,classification,,1.0,5,2021-02-21T22:15:34Z,Classification,sbaron27,2658056545512459
crowd-journalism-enum,classification,1.0,,1,2021-01-16T11:05:56Z,Classification,fmcbeith3,3489751615648677
crowd-journalism-enum,classification,2.0,4.0,3,2020-12-13T00:39:55Z,Classification,jricharz23,6026096066242433
crowd-journalism-enum,classification,3.0,2.0,1,2021-02-20T22:51:05Z,Classification,bborrow29,2735159440043903
crowd-journalism-enum,classification,4.0,1.0,5,2021-02-20T22:18:29Z,Classification,owissbey2e,7649467562814539
crowd-journalism-enum,classification,1.0,2.0,1,2020-11-20T05:34:20Z,Classification,ibrayson15,4904516616565020
crowd-journalism-enum,classification,4.0,2.0,4,2021-02-21T19:41:25Z,Classification,bblint1j,8561764422759124
crowd-journalism-enum,classification,2.0,2.0,2,2021-01-17T11:31:59Z,Classification,swinship6,1559737493157748
crowd-journalism-enum,classification,3.0,2.0,1,2021-01-07T14:23:53Z,Classification,sjablonski17,3978434926392435
crowd-journalism-enum,classification,2.0,2.0,2,2021-02-07T20:19:51Z,Classification,bborrow29,8177053887898752
crowd-journalism-enum,classification,3.0,5.0,4,2020-12-20T02:20:04Z,Classification,ceynon1,7240722346967644
crowd-journalism-enum,classification,2.0,5.0,1,2021-03-17T20:31:01Z,Classification,jricharz23,6026096066242433
crowd-journalism-enum,classification,3.0,4.0,5,2021-03-05T03:23:39Z,Classification,nembertonf,3408473597223740
crowd-journalism-enum,classification,3.0,1.0,1,2020-11-23T03:42:13Z,Classification,ykerink,8924596427189516
crowd-journalism-enum,classification,3.0,5.0,2,2020-11-25T03:56:11Z,Classification,greah26,6389288397833455
crowd-journalism-enum,classification,2.0,5.0,2,2021-01-17T15:07:20Z,Classification,sjablonski17,8993764205130051
crowd-journalism-enum,classification,4.0,4.0,4,2020-11-30T15:14:50Z,Classification,clillistonee,1934702273165675
crowd-journalism-enum,classification,3.0,,3,2021-02-04T18:19:27Z,Classification,owissbey2e,1776249232022364
crowd-journalism-enum,classification,,1.0,4,2020-12-08T01:09:37Z,Classification,nembertonf,5624854783409637
crowd-journalism-enum,classification,3.0,4.0,2,2021-03-03T19:21:30Z,Classification,ddownham1t,1269933200062141
crowd-journalism-enum,classification,4.0,2.0,5,2021-02-26T00:38:33Z,Classification,cgrahlmans2r,8482665724185057
crowd-journalism-enum,classification,,2.0,2,2021-02-25T15:53:51Z,Classification,jtregea2b,3876175049841143
crowd-journalism-enum,classification,1.0,4.0,2,2020-11-24T08:23:19Z,Classification,jagge1k,5784000059332046
crowd-journalism-enum,classification,3.0,5.0,4,2021-03-03T16:54:51Z,Classification,wweagener1i,3280586927392186
crowd-journalism-enum,classification,1.0,1.0,3,2021-01-12T16:28:01Z,Classification,cgrahlmans2r,9522974279552014
crowd-journalism-enum,classification,2.0,2.0,2,2021-01-20T18:00:06Z,Classification,kbanasiki,3986582319686907
crowd-journalism-enum,classification,5.0,2.0,5,2020-12-09T04:03:14Z,Classification,sbaron27,2658056545512459
crowd-journalism-enum,classification,,2.0,5,2021-02-10T00:06:25Z,Classification,lmacduffie2i,2024926247863185
crowd-journalism-enum,classification,2.0,5.0,2,2021-02-26T12:49:06Z,Classification,lmacalpyne1y,5478885996927251
crowd-journalism-enum,classification,,1.0,1,2021-03-01T14:28:26Z,Classification,adargieu,3440971611463569
crowd-journalism-enum,classification,1.0,3.0,1,2021-02-16T12:25:08Z,Classification,bhammerich1o,4620448257742280
crowd-journalism-enum,classification,,5.0,5,2021-02-23T05:33:03Z,Classification,glewtey2j,7159511173752219
crowd-journalism-enum,classification,1.0,1.0,3,2020-12-31T09:03:33Z,Classification,cjaggers1s,1604212811155188
crowd-journalism-enum,classification,1.0,5.0,3,2021-01-04T18:46:18Z,Classification,abasindaled,8600576740773568
crowd-journalism-enum,classification,2.0,1.0,5,2021-01-18T09:33:28Z,Classification,dcaspell2q,4680888124815290
crowd-journalism-enum,classification,4.0,5.0,3,2020-12-09T20:12:59Z,Classification,cgrahlmans2r,5360961570045480
crowd-journalism-enum,classification,1.0,3.0,1,2020-12-25T00:53:25Z,Classification,wzarfat2l,6195341507727736
crowd-journalism-enum,classification,2.0,1.0,2,2021-01-28T17:54:38Z,Classification,cgrahlmans2r,5360961570045480
crowd-journalism-enum,classification,5.0,,3,2020-12-18T01:20:31Z,Classification,nlodot,3767922001696477
crowd-journalism-enum,classification,3.0,4.0,3,2020-11-27T13:48:42Z,Classification,bborrow29,5687359413529278
crowd-journalism-enum,classification,5.0,2.0,3,2020-12-18T07:58:14Z,Classification,nrawsthorn2f,4426554965503823
crowd-journalism-enum,classification,4.0,5.0,2,2020-12-31T06:37:37Z,Classification,rmeale0,8085201161523775
crowd-journalism-enum,classification,4.0,5.0,1,2021-03-15T06:23:07Z,Classification,crubra14,2947072312282038
crowd-journalism-enum,classification,4.0,3.0,5,2021-01-17T23:53:50Z,Classification,lmacduffie2i,2576590510147064
crowd-journalism-enum,classification,1.0,5.0,2,2021-03-03T04:35:06Z,Classification,jricharz23,8106098735606934
crowd-journalism-enum,classification,4.0,2.0,4,2021-02-08T17:03:58Z,Classification,jtregea2b,4930263212843836
crowd-journalism-enum,classification,4.0,3.0,4,2021-02-11T17:33:24Z,Classification,abasindaled,7118835905922197
crowd-journalism-enum,classification,1.0,2.0,1,2020-12-30T08:41:07Z,Classification,dconigsby1h,3024303645392827
crowd-journalism-enum,classification,5.0,4.0,5,2021-01-11T05:30:04Z,Classification,aorrom2a,6697028084397380
crowd-journalism-enum,classification,1.0,4.0,3,2020-12-01T12:49:04Z,Classification,rtebb16,6922446776850300
crowd-journalism-enum,classification,4.0,5.0,2,2021-03-16T01:48:00Z,Classification,opilipyakc,6726618771268086
crowd-journalism-enum,classification,4.0,1.0,3,2020-11-20T09:01:37Z,Classification,lhumbellp,2569222812280442
crowd-journalism-enum,classification,2.0,5.0,4,2020-12-05T06:44:55Z,Classification,fyepiskopovj,6492053303187359
crowd-journalism-enum,classification,2.0,1.0,5,2021-02-19T14:11:56Z,Classification,tlearmond5,2090237120659662
crowd-journalism-enum,classification,5.0,4.0,3,2020-12-14T16:33:07Z,Classification,abencher2p,2176686125830668
crowd-journalism-enum,classification,5.0,1.0,3,2020-12-21T23:51:13Z,Classification,aorrom2a,1219493889080901
crowd-journalism-enum,classification,2.0,5.0,4,2020-11-24T05:06:34Z,Classification,fyepiskopovj,7775529113830778
crowd-journalism-enum,classification,,1.0,5,2020-11-20T11:29:42Z,Classification,cjaggers1s,2783187921024926
crowd-journalism-enum,classification,2.0,5.0,2,2021-02-04T22:35:05Z,Classification,afines1m,6583582063391828
crowd-journalism-enum,classification,5.0,2.0,5,2021-02-18T07:05:50Z,Classification,owissbey2e,3147050571821108
crowd-journalism-enum,classification,,1.0,3,2020-12-31T20:27:06Z,Classification,lbonnetteq,2017808974719610
crowd-journalism-enum,classification,4.0,3.0,4,2021-01-02T12:30:56Z,Classification,tnicely19,7919183629487994
crowd-journalism-enum,classification,2.0,1.0,1,2021-03-08T01:27:22Z,Classification,aorrom2a,5755967042065303
crowd-journalism-enum,classification,3.0,4.0,4,2021-02-18T15:15:14Z,Classification,hjewissl,5379020075387650
crowd-journalism-enum,classification,1.0,2.0,3,2021-02-18T13:18:28Z,Classification,mstennerh,2712329950262962
crowd-journalism-enum,classification,3.0,5.0,4,2020-12-13T03:27:47Z,Classification,wperrittg,8958942769392683
crowd-journalism-enum,classification,1.0,4.0,1,2021-01-30T21:33:10Z,Classification,afines1m,9527381454769920
crowd-journalism-enum,classification,4.0,3.0,1,2021-02-01T22:56:35Z,Classification,tcurmi1e,9363616004540080
crowd-journalism-enum,classification,5.0,3.0,3,2021-02-27T23:16:33Z,Classification,nrawsthorn2f,3656550881821033
crowd-journalism-enum,classification,4.0,1.0,3,2021-02-18T18:33:34Z,Classification,hjewissl,2086019576524322
crowd-journalism-enum,classification,4.0,3.0,2,2020-12-04T14:25:40Z,Classification,afines1m,6583582063391828
crowd-journalism-enum,classification,5.0,3.0,2,2021-02-22T12:27:50Z,Classification,jrennles1b,5743816672542605
crowd-journalism-enum,classification,,2.0,1,2021-01-15T11:08:06Z,Classification,gkilbane1a,1309535201756735
crowd-journalism-enum,classification,,2.0,5,2020-12-16T02:37:56Z,Classification,mstennerh,2712329950262962
crowd-journalism-enum,classification,5.0,4.0,2,2021-03-07T08:59:16Z,Classification,gkilbane1a,3579357464735279
crowd-journalism-enum,classification,1.0,2.0,1,2021-01-15T08:42:43Z,Classification,bkettowz,4983351482766753
crowd-journalism-enum,classification,5.0,,3,2021-03-08T12:41:43Z,Classification,clillistonee,4578445409463441
crowd-journalism-enum,classification,4.0,3.0,5,2020-12-01T10:28:53Z,Classification,elarraway1p,7521312873077838
crowd-journalism-enum,classification,1.0,4.0,4,2021-02-15T11:24:01Z,Classification,mstennerh,8339219208568698
crowd-journalism-enum,classification,2.0,4.0,1,2020-11-29T21:54:57Z,Classification,tlearmond5,2090237120659662
crowd-journalism-enum,classification,,4.0,5,2020-12-31T21:01:26Z,Classification,wweagener1i,1970372870760903
crowd-journalism-enum,classification,5.0,5.0,4,2020-12-03T17:42:40Z,Classification,llefriec1u,9498040582671340
crowd-journalism-enum,classification,1.0,1.0,2,2021-01-20T07:55:23Z,Classification,nlodot,3795911523895965
crowd-journalism-enum,classification,5.0,1.0,4,2020-11-20T10:00:01Z,Classification,cjaggers1s,1604212811155188
crowd-journalism-enum,classification,,1.0,5,2021-02-17T03:11:15Z,Classification,glewtey2j,7159511173752219
crowd-journalism-enum,classification,5.0,5.0,3,2020-12-22T10:52:19Z,Classification,fleipnik22,7808360929788560
crowd-journalism-enum,classification,3.0,5.0,2,2020-12-04T15:23:39Z,Classification,cwelford1w,3954387566843029
crowd-journalism-enum,classification,1.0,2.0,4,2020-12-15T04:06:01Z,Classification,nlodot,3795911523895965
crowd-journalism-enum,classification,,1.0,1,2020-12-08T03:36:01Z,Classification,jrennles1b,9889835460261740
crowd-journalism-enum,classification,4.0,4.0,2,2020-12-23T20:20:40Z,Classification,mstennerh,8339219208568698
crowd-journalism-enum,classification,3.0,1.0,5,2021-02-26T22:26:55Z,Classification,srisen1d,5417136728655621
crowd-journalism-enum,classification,2.0,1.0,1,2020-11-21T01:12:57Z,Classification,elarraway1p,8349830672841515
crowd-journalism-enum,classification,4.0,5.0,4,2021-03-03T19:57:00Z,Classification,bkettowz,2536283713173962
crowd-journalism-enum,classification,4.0,3.0,1,2021-01-15T09:11:40Z,Classification,swinship6,9749638357991860
crowd-journalism-enum,classification,4.0,,1,2021-02-07T22:37:39Z,Classification,jwindross1g,3004036150495367
crowd-journalism-enum,classification,3.0,4.0,1,2020-12-14T09:31:46Z,Classification,lmacduffie2i,2929681706391290
crowd-journalism-enum,classification,2.0,,5,2021-01-10T19:57:48Z,Classification,ghawford1f,4601611836155880
crowd-journalism-enum,classification,3.0,2.0,3,2020-12-04T06:11:59Z,Classification,lmacalpyne1y,2260829282950026
crowd-journalism-enum,classification,4.0,2.0,1,2021-03-17T15:58:42Z,Classification,opilipyakc,8217613082908805
crowd-journalism-enum,classification,,,3,2020-12-30T09:36:43Z,Classification,ykerink,8924596427189516
crowd-journalism-enum,classification,4.0,2.0,3,2020-12-08T03:53:50Z,Classification,beasmans,1855333743721362
crowd-journalism-enum,classification,5.0,1.0,4,2021-01-24T15:03:46Z,Classification,anorley24,2226263331819821
crowd-journalism-enum,classification,3.0,,2,2020-12-26T01:09:32Z,Classification,anorley24,7800947871973638
crowd-journalism-enum,classification,,3.0,4,2021-02-05T04:50:22Z,Classification,tkiln2g,4400521062758084
crowd-journalism-enum,classification,1.0,5.0,4,2021-03-15T09:10:35Z,Classification,anorley24,3720561012917584
crowd-journalism-enum,classification,1.0,5.0,4,2021-02-05T22:56:20Z,Classification,bborrow29,2735159440043903
crowd-journalism-enum,classification,5.0,4.0,1,2021-03-10T01:34:51Z,Classification,owissbey2e,8576796452879713
crowd-journalism-enum,classification,2.0,4.0,3,2020-11-28T07:48:21Z,Classification,cjoretn,6037199917107065
crowd-journalism-enum,classification,5.0,2.0,5,2021-02-05T05:06:18Z,Classification,crubra14,8765613943672018
crowd-journalism-enum,classification,3.0,2.0,1,2020-11-29T10:01:38Z,Classification,uvalentim7,2041881478252848
crowd-journalism-enum,classification,5.0,2.0,3,2021-02-15T04:56:14Z,Classification,akynoch1q,3511109060854381
crowd-journalism-enum,classification,1.0,1.0,2,2021-02-08T12:26:53Z,Classification,tcurmi1e,1585047487357024
crowd-journalism-enum,classification,5.0,3.0,3,2020-11-20T12:08:58Z,Classification,abasindaled,8600576740773568
crowd-journalism-enum,classification,4.0,,5,2021-01-30T08:50:50Z,Classification,rroelofsen25,5791587046828086
crowd-journalism-enum,classification,2.0,,5,2020-12-06T06:08:19Z,Classification,ddownham1t,6080039477910757
crowd-journalism-enum,classification,5.0,1.0,1,2020-12-07T10:01:51Z,Classification,lbonnetteq,7503673919466610
crowd-journalism-enum,classification,4.0,3.0,2,2021-01-04T02:34:33Z,Classification,dhawkeridge1l,2967619329618520
crowd-journalism-enum,classification,5.0,,1,2021-02-19T05:24:31Z,Classification,jrennles1b,2789642342581412
crowd-journalism-enum,classification,5.0,,3,2021-02-02T16:40:28Z,Classification,rrumble1v,9566403283621798
crowd-journalism-enum,classification,2.0,3.0,1,2021-01-01T10:50:59Z,Classification,cjaggers1s,2783187921024926
crowd-journalism-enum,classification,4.0,2.0,4,2020-12-18T21:07:30Z,Classification,glewtey2j,1514905741753723
crowd-journalism-enum,classification,1.0,2.0,5,2021-02-10T08:02:16Z,Classification,aorrom2a,9377863488891220
crowd-journalism-enum,classification,1.0,,1,2020-11-20T02:33:00Z,Classification,ceynon1,5745818973305646
crowd-journalism-enum,classification,4.0,4.0,4,2021-02-18T03:20:22Z,Classification,username,7366761420805395
crowd-journalism-enum,classification,5.0,3.0,1,2020-12-19T09:17:02Z,Classification,cwelford1w,9715465176081456
crowd-journalism-enum,classification,1.0,2.0,2,2020-11-29T05:01:19Z,Classification,tbissiker18,1305860601252192
crowd-journalism-enum,classification,2.0,1.0,5,2021-02-22T17:12:20Z,Classification,jricharz23,6402571571423743
crowd-journalism-enum,classification,4.0,2.0,2,2020-12-28T15:09:51Z,Classification,ykerink,8924596427189516
crowd-journalism-enum,classification,5.0,3.0,4,2020-12-15T07:34:28Z,Classification,bborrow29,6660421318623122
crowd-journalism-enum,classification,,5.0,4,2020-12-21T09:49:12Z,Classification,fsirman1z,5351926125877422
crowd-journalism-enum,classification,4.0,4.0,4,2021-03-08T22:26:22Z,Classification,username,3629263019542617
crowd-journalism-enum,classification,2.0,2.0,2,2021-02-08T00:01:08Z,Classification,srisen1d,1481612511495415
crowd-journalism-enum,classification,2.0,4.0,3,2021-02-07T16:48:55Z,Classification,nrawsthorn2f,4462968641016735
crowd-journalism-enum,classification,5.0,2.0,1,2021-03-10T20:38:51Z,Classification,elarraway1p,4091532696613382
crowd-journalism-enum,classification,5.0,3.0,1,2020-12-17T11:37:11Z,Classification,bkettowz,7051348314480590
crowd-journalism-enum,classification,4.0,4.0,5,2020-12-04T21:48:27Z,Classification,gkilbane1a,9061904682452136
crowd-journalism-enum,classification,3.0,1.0,2,2021-01-05T23:41:08Z,Classification,beasmans,3502664938450346
crowd-journalism-enum,classification,5.0,1.0,1,2021-01-02T06:47:58Z,Classification,gfold2n,9142252676912820
crowd-journalism-enum,classification,1.0,3.0,5,2021-02-16T08:17:50Z,Classification,dconigsby1h,2866144158664260
crowd-journalism-enum,classification,4.0,,2,2021-03-15T10:27:22Z,Classification,ewillowsv,6123913228620668
crowd-journalism-enum,classification,2.0,5.0,1,2021-01-04T01:55:16Z,Classification,dhawkeridge1l,1023526290060809
crowd-journalism-enum,classification,3.0,1.0,5,2021-03-08T05:47:31Z,Classification,greah26,4595680968652288
crowd-journalism-enum,classification,5.0,5.0,4,2021-01-23T18:27:34Z,Classification,kbierman11,8652868433167797
crowd-journalism-enum,classification,1.0,1.0,1,2021-01-02T03:31:20Z,Classification,beasmans,9221914751518686
crowd-journalism-enum,classification,2.0,2.0,2,2021-02-01T15:55:08Z,Classification,cwelford1w,3351016035588275
crowd-journalism-enum,classification,4.0,4.0,4,2021-02-16T03:43:54Z,Classification,elarraway1p,4666019533410962
crowd-journalism-enum,classification,5.0,3.0,1,2021-01-13T07:19:45Z,Classification,tbartoshevich28,9500522966625764
crowd-journalism-enum,classification,2.0,5.0,1,2020-12-23T09:33:38Z,Classification,abasindaled,1342289380727796
crowd-journalism-enum,classification,3.0,,3,2020-12-18T17:01:11Z,Classification,bkettowz,1480809006467007
crowd-journalism-enum,classification,5.0,5.0,3,2021-01-01T06:31:34Z,Classification,ewillowsv,3024975968985515
crowd-journalism-enum,classification,5.0,2.0,3,2020-12-21T14:43:45Z,Classification,tnicely19,6164007972446267
crowd-journalism-enum,classification,1.0,3.0,3,2021-03-17T10:28:48Z,Classification,jwindross1g,3004036150495367
crowd-journalism-enum,classification,1.0,3.0,3,2021-03-11T00:51:22Z,Classification,dmeasom13,2540886996923945
crowd-journalism-enum,classification,,4.0,3,2021-01-14T04:30:10Z,Classification,pchadwyck2,3108136734591635
crowd-journalism-enum,classification,5.0,1.0,2,2020-12-07T11:36:36Z,Classification,sbostickx,9879727526384176
crowd-journalism-enum,classification,3.0,3.0,5,2021-01-30T16:54:27Z,Classification,kbierman11,5319209640801382
crowd-journalism-enum,classification,3.0,5.0,1,2021-01-13T15:05:27Z,Classification,bkettowz,5718879939502107
crowd-journalism-enum,classification,3.0,1.0,2,2021-02-10T09:02:50Z,Classification,bpawelczyk20,7793834793149742
crowd-journalism-enum,classification,1.0,1.0,3,2020-12-24T20:49:59Z,Classification,greah26,9922915593941758
crowd-journalism-enum,classification,5.0,5.0,4,2020-11-28T10:04:17Z,Classification,fsirman1z,9729777837568478
crowd-journalism-enum,classification,4.0,2.0,2,2021-03-10T04:12:17Z,Classification,ykerink,7651961517316643
crowd-journalism-enum,classification,,3.0,3,2020-12-21T02:58:47Z,Classification,cjaggers1s,4643114273192876
crowd-journalism-enum,classification,3.0,5.0,2,2020-11-21T22:12:17Z,Classification,jagge1k,5784000059332046
crowd-journalism-enum,classification,2.0,,3,2021-01-15T00:48:53Z,Classification,llefriec1u,5404475748454608
crowd-journalism-enum,classification,1.0,4.0,1,2021-02-09T19:11:00Z,Classification,tnicely19,7351454692721402
crowd-journalism-enum,classification,4.0,2.0,1,2020-11-30T10:42:06Z,Classification,gfold2n,6115177142599661
crowd-journalism-enum,classification,2.0,1.0,4,2021-01-17T23:40:41Z,Classification,jricharz23,2952382521480333
crowd-journalism-enum,classification,4.0,5.0,2,2020-12-17T01:18:58Z,Classification,elarraway1p,7521312873077838
crowd-journalism-enum,classification,,1.0,4,2021-02-03T09:16:20Z,Classification,tlearmond5,9418505083113468
crowd-journalism-enum,classification,2.0,1.0,3,2021-02-11T03:38:52Z,Classification,rmorican21,7961759114041367
crowd-journalism-enum,classification,3.0,3.0,2,2020-11-25T07:27:14Z,Classification,fleipnik22,6575944271831304
crowd-journalism-enum,classification,3.0,2.0,4,2020-12-09T02:58:46Z,Classification,tbartoshevich28,1557914589788058
crowd-journalism-enum,classification,4.0,4.0,2,2021-01-29T06:00:49Z,Classification,dmeasom13,1743451852796088
crowd-journalism-enum,classification,,5.0,3,2020-11-30T12:09:14Z,Classification,tkiln2g,2028016339647645
crowd-journalism-enum,classification,,3.0,5,2021-02-09T06:46:23Z,Classification,jagge1k,2079239668904646
crowd-journalism-enum,classification,4.0,2.0,2,2021-02-27T01:50:44Z,Classification,tlearmond5,2633311184651277
crowd-journalism-enum,classification,4.0,,5,2020-12-09T05:16:38Z,Classification,gkilbane1a,2136285641647001
crowd-journalism-enum,classification,2.0,5.0,3,2021-01-03T05:20:38Z,Classification,crubra14,8765613943672018
crowd-journalism-enum,classification,2.0,5.0,5,2020-12-16T10:24:39Z,Classification,jtregea2b,3876175049841143
crowd-journalism-enum,classification,5.0,,3,2021-01-24T17:55:44Z,Classification,ybealsb,1970905250790673
crowd-journalism-enum,classification,5.0,5.0,3,2021-02-11T09:04:08Z,Classification,glewtey2j,1514905741753723
crowd-journalism-enum,classification,4.0,1.0,4,2021-03-11T21:46:35Z,Classification,greah26,3848859137461412
crowd-journalism-enum,classification,2.0,,3,2021-02-22T00:02:35Z,Classification,ddownham1t,6626611474695941
crowd-journalism-enum,classification,2.0,,3,2020-12-14T21:01:14Z,Classification,dconigsby1h,3539300181380974
crowd-journalism-enum,classification,,1.0,4,2021-01-15T12:38:14Z,Classification,beasmans,7147044681698072
crowd-journalism-enum,classification,2.0,2.0,4,2021-02-05T00:58:15Z,Classification,mdeener1x,9918706414640080
crowd-journalism-enum,classification,5.0,1.0,2,2020-12-07T09:29:31Z,Classification,hfaulconbridge2d,3431239201527539
crowd-journalism-enum,classification,4.0,2.0,3,2021-02-12T16:00:23Z,Classification,nspanswick2k,2429691833573017
crowd-journalism-enum,classification,4.0,4.0,3,2021-02-01T07:14:13Z,Classification,aorrom2a,1303438899337139
crowd-journalism-enum,classification,,2.0,3,2020-12-03T00:27:29Z,Classification,bhammerich1o,6852044651952466
crowd-journalism-enum,classification,3.0,5.0,1,2020-12-21T05:51:22Z,Classification,jagge1k,6487430256035472
crowd-journalism-enum,classification,5.0,5.0,1,2021-03-11T12:35:20Z,Classification,uvalentim7,9924432268746944
crowd-journalism-enum,classification,1.0,3.0,4,2021-02-23T12:01:51Z,Classification,lbonnetteq,7503673919466610
crowd-journalism-enum,classification,4.0,4.0,1,2021-01-19T15:27:58Z,Classification,swinship6,5782094191355710
crowd-journalism-enum,classification,2.0,,4,2020-11-22T23:30:30Z,Classification,owissbey2e,1776249232022364
crowd-journalism-enum,classification,2.0,5.0,3,2021-02-07T18:00:27Z,Classification,jagge1k,9233673747584576
crowd-journalism-enum,classification,3.0,4.0,4,2020-12-25T23:33:38Z,Classification,jagge1k,4631877982586239
crowd-journalism-enum,classification,4.0,5.0,5,2021-02-20T08:13:53Z,Classification,dconigsby1h,1148860846195891
crowd-journalism-enum,classification,5.0,3.0,3,2021-01-18T07:49:17Z,Classification,mdeener1x,6165001339289025
crowd-journalism-enum,classification,3.0,5.0,1,2021-02-28T00:42:08Z,Classification,cwelford1w,2886960112296058
crowd-journalism-enum,classification,5.0,5.0,4,2020-12-07T21:00:53Z,Classification,cgrahlmans2r,9522974279552014
crowd-journalism-enum,classification,4.0,1.0,4,2020-12-22T12:36:45Z,Classification,ceynon1,2912328331200818
crowd-journalism-enum,classification,2.0,2.0,5,2021-01-23T10:10:38Z,Classification,wperrittg,8958942769392683
crowd-journalism-enum,classification,2.0,2.0,4,2021-02-16T09:15:10Z,Classification,rmeale0,9233780923519126
crowd-journalism-enum,classification,5.0,1.0,4,2020-12-20T15:01:56Z,Classification,rmeale0,8604744215787881
crowd-journalism-enum,classification,2.0,2.0,1,2020-11-23T06:34:43Z,Classification,anorley24,2842345336396451
crowd-journalism-enum,classification,2.0,2.0,4,2021-01-01T08:41:29Z,Classification,jrennles1b,5716524775656239
crowd-journalism-enum,classification,2.0,4.0,2,2021-02-01T02:04:37Z,Classification,greah26,6389288397833455
crowd-journalism-enum,classification,,4.0,2,2020-12-06T00:44:48Z,Classification,wzarfat2l,9410890997716728
crowd-journalism-enum,classification,4.0,1.0,1,2021-02-13T01:21:31Z,Classification,bkettowz,4983351482766753
crowd-journalism-enum,classification,2.0,,4,2021-02-16T08:42:20Z,Classification,bpawelczyk20,9465637980401108
crowd-journalism-enum,classification,3.0,,4,2021-01-17T09:11:54Z,Classification,hfaulconbridge2d,1816245511381880
crowd-journalism-enum,classification,4.0,3.0,5,2020-11-20T18:58:08Z,Classification,jricharz23,2245400351348103
crowd-journalism-enum,classification,1.0,5.0,1,2020-11-28T08:57:04Z,Classification,lbonnetteq,6937375867671395
crowd-journalism-enum,classification,5.0,4.0,1,2020-12-06T11:03:29Z,Classification,fyepiskopovj,8376693695084404
crowd-journalism-enum,classification,5.0,1.0,1,2020-12-04T23:12:09Z,Classification,opilipyakc,8180294236138268
crowd-journalism-enum,classification,3.0,,4,2021-03-06T14:35:40Z,Classification,jtregea2b,3876175049841143
crowd-journalism-enum,classification,4.0,5.0,4,2020-12-04T01:05:06Z,Classification,adargieu,6247314730295701
crowd-journalism-enum,classification,1.0,2.0,5,2020-12-09T02:38:11Z,Classification,dcaspell2q,6704188122177051
crowd-journalism-enum,classification,1.0,4.0,4,2021-01-10T02:24:33Z,Classification,jagge1k,8831642346294532
crowd-journalism-enum,classification,1.0,3.0,4,2021-01-31T08:44:49Z,Classification,tbissiker18,3498231984652266
crowd-journalism-enum,classification,5.0,4.0,3,2020-12-16T13:36:10Z,Classification,dcaspell2q,4680888124815290
crowd-journalism-enum,classification,5.0,5.0,4,2020-12-11T11:03:32Z,Classification,tkiln2g,7189852311168896
crowd-journalism-enum,classification,,5.0,3,2021-03-15T00:45:18Z,Classification,jricharz23,8135952162784396
crowd-journalism-enum,classification,3.0,3.0,5,2021-01-24T21:58:39Z,Classification,rrumble1v,5940273397900333
crowd-journalism-enum,classification,3.0,2.0,1,2020-12-21T23:00:51Z,Classification,rroelofsen25,8073738596688995
crowd-journalism-enum,classification,5.0,3.0,5,2021-03-01T06:05:31Z,Classification,ldacey2o,9664895593128210
crowd-journalism-enum,classification,4.0,5.0,5,2020-11-23T12:14:50Z,Classification,mkeywood12,1085353265112230
crowd-journalism-enum,classification,5.0,4.0,1,2021-01-05T19:57:51Z,Classification,cgrahlmans2r,7652246936881139
crowd-journalism-enum,classification,5.0,4.0,1,2021-01-08T00:00:09Z,Classification,jwindross1g,2480622255584245
crowd-journalism-enum,classification,1.0,3.0,1,2021-02-17T19:37:25Z,Classification,wzarfat2l,6195341507727736
crowd-journalism-enum,classification,4.0,4.0,1,2021-01-01T23:28:10Z,Classification,pchadwyck2,7089939874815372
crowd-journalism-enum,classification,3.0,3.0,5,2021-01-23T12:45:21Z,Classification,tfinlaisonr,6141758573577342
crowd-journalism-enum,classification,2.0,3.0,1,2021-03-07T13:27:04Z,Classification,anorley24,3720561012917584
crowd-journalism-enum,classification,2.0,1.0,4,2021-01-17T09:33:45Z,Classification,beasmans,3493865081613133
crowd-journalism-enum,classification,5.0,2.0,4,2021-01-23T18:05:52Z,Classification,cjaggers1s,4643114273192876
crowd-journalism-enum,classification,5.0,4.0,4,2020-12-27T00:53:57Z,Classification,lnewe4,3143081919467545
crowd-journalism-enum,classification,,1.0,5,2020-12-23T22:33:58Z,Classification,swhipple10,7294869564429993
crowd-journalism-enum,classification,4.0,2.0,2,2021-01-19T08:03:04Z,Classification,nspanswick2k,8875988231971115
crowd-journalism-enum,classification,2.0,5.0,4,2021-01-21T10:26:25Z,Classification,pchadwyck2,3108136734591635
crowd-journalism-enum,classification,3.0,5.0,1,2021-03-03T21:35:38Z,Classification,bkettowz,9255814169507426
crowd-journalism-enum,classification,2.0,4.0,3,2021-01-28T19:02:49Z,Classification,ddownham1t,6080039477910757
crowd-journalism-enum,classification,1.0,3.0,2,2021-03-01T01:39:46Z,Classification,hjewissl,5391897873920310
crowd-journalism-enum,classification,4.0,1.0,1,2021-01-17T19:49:35Z,Classification,gfold2n,9142252676912820
crowd-journalism-enum,classification,4.0,1.0,1,2021-03-16T01:17:53Z,Classification,fmcbeith3,8929921199436030
crowd-journalism-enum,classification,1.0,5.0,1,2021-01-19T11:22:14Z,Classification,sjeffelsw,5099527309671354
crowd-journalism-enum,classification,3.0,3.0,1,2021-02-06T11:29:47Z,Classification,cgrahlmans2r,7652246936881139
crowd-journalism-enum,classification,1.0,4.0,1,2021-01-18T23:39:58Z,Classification,rmorican21,9892297574968112
crowd-journalism-enum,classification,4.0,2.0,2,2020-12-12T01:02:39Z,Classification,tbissiker18,1305860601252192
crowd-journalism-enum,classification,5.0,1.0,3,2020-11-25T19:10:04Z,Classification,lhumbellp,5064533664046766
crowd-journalism-enum,classification,4.0,5.0,4,2020-12-10T05:42:26Z,Classification,nrawsthorn2f,3656550881821033
crowd-journalism-enum,classification,1.0,3.0,3,2020-12-21T21:38:03Z,Classification,mhammilla,2019973146228120
crowd-journalism-enum,classification,3.0,2.0,2,2021-02-18T16:19:22Z,Classification,dmeasom13,2093125938203410
crowd-journalism-enum,classification,2.0,1.0,3,2021-01-20T13:09:02Z,Classification,pchadwyck2,7089939874815372
crowd-journalism-enum,classification,5.0,,3,2021-03-01T20:58:47Z,Classification,jagge1k,7545757271441560
crowd-journalism-enum,classification,4.0,3.0,5,2021-03-10T03:03:14Z,Classification,beasmans,7147044681698072
crowd-journalism-enum,classification,2.0,2.0,4,2021-02-28T21:26:34Z,Classification,gfold2n,6115177142599661
crowd-journalism-enum,classification,5.0,3.0,1,2020-12-09T04:21:23Z,Classification,ewillowsv,6123913228620668
crowd-journalism-enum,classification,4.0,3.0,1,2020-11-19T14:12:37Z,Classification,srisen1d,5417136728655621
crowd-journalism-enum,classification,3.0,3.0,1,2021-02-18T15:21:11Z,Classification,cjaggers1s,6974622807508608
crowd-journalism-enum,classification,2.0,1.0,1,2021-02-25T17:33:57Z,Classification,mhammilla,2019973146228120
crowd-journalism-enum,classification,4.0,3.0,2,2021-01-05T06:04:33Z,Classification,cjaggers1s,1604212811155188
crowd-journalism-enum,classification,5.0,5.0,3,2020-11-19T23:25:36Z,Classification,dhawkeridge1l,5906216847861572
crowd-journalism-enum,classification,5.0,3.0,4,2020-11-24T17:02:03Z,Classification,aorrom2a,1219493889080901
crowd-journalism-enum,classification,2.0,4.0,1,2021-01-22T11:29:01Z,Classification,greah26,4595680968652288
crowd-journalism-enum,classification,5.0,,5,2021-02-13T05:24:50Z,Classification,opilipyakc,8478468288107025
crowd-journalism-enum,classification,,5.0,5,2020-11-27T20:19:58Z,Classification,sjeffelsw,6726347465674328
crowd-journalism-enum,classification,3.0,2.0,3,2020-11-23T03:02:56Z,Classification,srisen1d,5062169807779809
crowd-journalism-enum,classification,1.0,2.0,5,2021-03-08T03:22:17Z,Classification,mstennerh,7501645983019562
crowd-journalism-enum,classification,,1.0,5,2021-03-06T20:53:34Z,Classification,aorrom2a,1303438899337139
crowd-journalism-enum,classification,5.0,3.0,4,2020-12-26T20:10:09Z,Classification,mkeywood12,1085353265112230
crowd-journalism-enum,classification,1.0,5.0,2,2021-02-17T08:22:45Z,Classification,cjaggers1s,3749316123080121
crowd-journalism-enum,classification,5.0,1.0,5,2021-02-01T12:35:41Z,Classification,swhipple10,9642155404307432
crowd-journalism-enum,classification,4.0,2.0,1,2021-01-13T00:31:25Z,Classification,mdeener1x,2257011963815304
crowd-journalism-enum,classification,5.0,4.0,2,2020-12-07T23:40:13Z,Classification,rrumble1v,4003578992430256
crowd-journalism-enum,classification,1.0,3.0,2,2020-11-20T19:03:33Z,Classification,fainslie8,3281192270780649
crowd-journalism-enum,classification,2.0,2.0,3,2021-02-15T04:00:41Z,Classification,jrennles1b,3204748221346884
crowd-journalism-enum,classification,2.0,5.0,5,2021-02-14T08:49:05Z,Classification,mhammilla,2019973146228120
crowd-journalism-enum,classification,5.0,5.0,5,2021-03-03T10:10:12Z,Classification,pchadwyck2,9632655014347670
crowd-journalism-enum,classification,5.0,2.0,1,2020-12-13T21:07:17Z,Classification,ddownham1t,6080039477910757
crowd-journalism-enum,classification,3.0,1.0,2,2021-02-02T11:08:01Z,Classification,nembertonf,5669691764693958
crowd-journalism-enum,classification,5.0,3.0,1,2020-12-04T19:07:40Z,Classification,wspencook1r,3770705933287152
crowd-journalism-enum,classification,4.0,5.0,1,2021-03-08T14:26:18Z,Classification,cwelford1w,4444777222942705
crowd-journalism-enum,classification,4.0,3.0,2,2020-12-23T21:35:55Z,Classification,sjablonski17,8993764205130051
crowd-journalism-enum,classification,2.0,5.0,2,2020-12-02T11:44:53Z,Classification,sbostickx,1941317315174859
crowd-journalism-enum,classification,3.0,1.0,2,2021-03-08T11:24:55Z,Classification,clillistonee,3833386514620946
crowd-journalism-enum,classification,4.0,1.0,2,2021-02-07T10:01:50Z,Classification,elarraway1p,7525898629074782
crowd-journalism-enum,classification,4.0,1.0,5,2021-02-05T21:02:57Z,Classification,swhipple10,9642155404307432
crowd-journalism-enum,classification,4.0,4.0,2,2021-03-18T00:19:46Z,Classification,akynoch1q,3511109060854381
crowd-journalism-enum,classification,2.0,4.0,1,2021-01-24T09:38:33Z,Classification,tbartoshevich28,2811608520483344
crowd-journalism-enum,classification,5.0,3.0,4,2021-01-05T13:03:24Z,Classification,clillistonee,6021899962329684
crowd-journalism-enum,classification,4.0,3.0,1,2021-02-09T02:20:57Z,Classification,ykerink,4460305092652464
crowd-journalism-enum,classification,2.0,2.0,3,2021-03-02T23:05:35Z,Classification,ddownham1t,9337081042535074
crowd-journalism-enum,classification,4.0,3.0,5,2021-01-28T18:15:41Z,Classification,beasmans,1622484911179766
crowd-journalism-enum,classification,4.0,2.0,5,2021-01-28T14:09:14Z,Classification,jagge1k,8831642346294532
crowd-journalism-enum,classification,3.0,4.0,5,2021-02-12T04:44:23Z,Classification,cjaggers1s,6974622807508608
crowd-journalism-enum,classification,2.0,5.0,1,2020-12-20T12:49:58Z,Classification,ddownham1t,9951081039685260
crowd-journalism-enum,classification,4.0,2.0,1,2021-02-26T14:42:02Z,Classification,clillistonee,6021899962329684
crowd-journalism-enum,classification,4.0,5.0,4,2021-01-02T13:33:06Z,Classification,jricharz23,6026096066242433
crowd-journalism-enum,classification,5.0,2.0,3,2021-03-14T05:57:15Z,Classification,vscholery,7947611542799010
crowd-journalism-enum,classification,5.0,3.0,5,2021-03-04T04:32:32Z,Classification,rroelofsen25,5280874416558994
crowd-journalism-enum,classification,,3.0,5,2020-12-28T22:27:03Z,Classification,beasmans,2313169480986443
crowd-journalism-enum,classification,1.0,1.0,3,2021-01-26T05:18:32Z,Classification,nlodot,3795911523895965
crowd-journalism-enum,classification,2.0,,5,2020-12-13T17:10:25Z,Classification,jrennles1b,9459560126206178
crowd-journalism-enum,classification,5.0,3.0,4,2020-12-14T15:33:05Z,Classification,lmacalpyne1y,2260829282950026
crowd-journalism-enum,classification,2.0,,3,2021-01-17T11:35:16Z,Classification,ghawford1f,8672453092149493
crowd-journalism-enum,classification,,2.0,5,2020-12-12T18:04:07Z,Classification,wspencook1r,8704592308662676
crowd-journalism-enum,classification,4.0,1.0,1,2021-02-12T06:09:19Z,Classification,nlodot,3767922001696477
crowd-journalism-enum,classification,1.0,1.0,1,2021-02-03T00:06:07Z,Classification,cjoretn,5833717805346661
crowd-journalism-enum,classification,1.0,4.0,3,2021-03-15T10:33:10Z,Classification,wzarfat2l,9410890997716728
crowd-journalism-enum,classification,4.0,1.0,5,2021-01-17T11:42:45Z,Classification,lmacalpyne1y,2260829282950026
crowd-journalism-enum,classification,3.0,,5,2020-11-25T05:29:50Z,Classification,tnicely19,7919183629487994
crowd-journalism-enum,classification,5.0,3.0,3,2021-02-14T05:35:48Z,Classification,kditchfield2m,5040277320840753
crowd-journalism-enum,classification,3.0,2.0,3,2021-03-10T12:14:19Z,Classification,rtuffrey2c,5405777235973444
crowd-journalism-enum,classification,5.0,1.0,5,2020-12-14T16:29:04Z,Classification,nrawsthorn2f,4426554965503823
crowd-journalism-enum,classification,5.0,2.0,2,2020-12-03T15:49:29Z,Classification,nlodot,3454976471060035
crowd-journalism-enum,classification,2.0,3.0,3,2020-12-16T11:23:30Z,Classification,ewillowsv,3080240031050403
crowd-journalism-enum,classification,1.0,3.0,3,2021-01-15T12:58:55Z,Classification,swhipple10,4799268814939211
crowd-journalism-enum,classification,4.0,3.0,1,2021-01-13T21:53:19Z,Classification,owissbey2e,7649467562814539
crowd-journalism-enum,classification,2.0,1.0,2,2021-01-19T20:46:17Z,Classification,nembertonf,2073399024292851
crowd-journalism-enum,classification,2.0,5.0,2,2021-02-27T06:36:50Z,Classification,hjewissl,2086019576524322
crowd-journalism-enum,classification,,4.0,1,2021-01-06T18:39:46Z,Classification,gkilbane1a,8068862469512874
crowd-journalism-enum,classification,3.0,5.0,5,2020-12-29T14:39:58Z,Classification,ddownham1t,6962050241150581
crowd-journalism-enum,classification,4.0,4.0,4,2021-02-09T08:16:05Z,Classification,tnicely19,9663186720844808
crowd-journalism-enum,classification,5.0,2.0,1,2021-03-12T11:47:28Z,Classification,ddownham1t,8601617827125251
crowd-journalism-enum,classification,1.0,4.0,4,2021-02-16T06:01:13Z,Classification,jagge1k,8831642346294532
crowd-journalism-enum,classification,1.0,2.0,2,2021-01-05T03:30:29Z,Classification,dhawkeridge1l,4372253978123449
crowd-journalism-enum,classification,3.0,4.0,5,2021-03-09T11:15:26Z,Classification,owissbey2e,6916414076839431
crowd-journalism-enum,classification,2.0,2.0,4,2021-03-10T13:57:16Z,Classification,dmeasom13,4173181348372611
crowd-journalism-enum,classification,5.0,4.0,3,2021-02-18T04:17:31Z,Classification,jtregea2b,1665877869749929
crowd-journalism-enum,classification,5.0,4.0,4,2021-02-14T10:57:53Z,Classification,cjoretn,5833717805346661
crowd-journalism-enum,classification,1.0,2.0,2,2021-03-06T19:21:12Z,Classification,rmeale0,9222123265297664
crowd-journalism-enum,classification,5.0,2.0,1,2020-12-29T16:49:40Z,Classification,bkettowz,5718879939502107
crowd-journalism-enum,classification,,3.0,5,2020-12-15T17:01:25Z,Classification,hjewissl,4721362723882241
crowd-journalism-enum,classification,4.0,5.0,5,2020-11-25T20:15:02Z,Classification,ykerink,6533655372897035
crowd-journalism-enum,classification,2.0,4.0,4,2021-02-03T23:51:17Z,Classification,fsirman1z,9729777837568478
crowd-journalism-enum,classification,2.0,2.0,2,2020-12-13T01:14:26Z,Classification,fleipnik22,7808360929788560
crowd-journalism-enum,classification,4.0,4.0,3,2021-02-26T01:25:27Z,Classification,kmelrossm,5707401592556775
crowd-journalism-enum,classification,2.0,4.0,2,2020-12-19T17:52:23Z,Classification,swhipple10,4799268814939211
crowd-journalism-enum,classification,3.0,2.0,4,2021-01-19T06:05:11Z,Classification,sbostickx,1941317315174859
crowd-journalism-enum,classification,2.0,4.0,4,2021-02-10T22:50:03Z,Classification,vscholery,9438118289782884
crowd-journalism-enum,classification,5.0,4.0,4,2021-02-06T14:35:02Z,Classification,jrennles1b,5716524775656239
crowd-journalism-enum,classification,4.0,5.0,3,2020-12-29T09:09:50Z,Classification,jricharz23,5980557929316321
crowd-journalism-enum,classification,1.0,1.0,1,2021-03-03T01:03:43Z,Classification,lbonnetteq,6828138325895628
crowd-journalism-enum,classification,4.0,5.0,4,2020-12-15T19:37:15Z,Classification,nembertonf,2260272728159983
crowd-journalism-enum,classification,3.0,1.0,1,2020-12-01T07:26:24Z,Classification,beasmans,9221914751518686
crowd-journalism-enum,classification,4.0,5.0,1,2021-02-06T03:35:23Z,Classification,lhumbellp,7650340527785936
crowd-journalism-enum,classification,5.0,1.0,3,2021-02-22T13:32:44Z,Classification,hjewissl,4404705470357769
crowd-journalism-enum,classification,2.0,2.0,1,2021-02-26T17:53:53Z,Classification,jwindross1g,4324110182295813
crowd-journalism-enum,classification,4.0,5.0,4,2021-02-17T04:11:32Z,Classification,dcaspell2q,1898103946394491
crowd-journalism-enum,classification,2.0,1.0,3,2020-12-13T07:37:08Z,Classification,tbartoshevich28,9438126159688760
crowd-journalism-enum,classification,3.0,1.0,4,2021-02-02T05:48:04Z,Classification,bhammerich1o,7029322770625266
crowd-journalism-enum,classification,1.0,2.0,1,2021-02-22T23:01:50Z,Classification,jwindross1g,1154408765079204
crowd-journalism-enum,classification,,4.0,4,2020-11-24T14:51:05Z,Classification,bblint1j,6780438547463962
crowd-journalism-enum,classification,5.0,4.0,5,2020-11-30T13:47:22Z,Classification,mdeener1x,2588952928692632
crowd-journalism-enum,classification,3.0,4.0,5,2020-12-29T06:29:42Z,Classification,afines1m,2811125504010400
crowd-journalism-enum,classification,2.0,5.0,3,2020-11-30T23:29:14Z,Classification,kmelrossm,9079856820734896
crowd-journalism-enum,classification,4.0,1.0,5,2021-02-15T11:50:54Z,Classification,sjeffelsw,5099527309671354
crowd-journalism-enum,classification,1.0,2.0,3,2021-02-27T12:16:56Z,Classification,tlearmond5,2633311184651277
crowd-journalism-enum,classification,1.0,,4,2020-12-10T17:24:47Z,Classification,tnicely19,8122213890696848
crowd-journalism-enum,classification,4.0,1.0,4,2021-02-28T06:30:29Z,Classification,tbartoshevich28,1130802686702182
crowd-journalism-enum,classification,5.0,1.0,1,2020-12-24T16:42:26Z,Classification,fsirman1z,9924146059146400
crowd-journalism-enum,classification,5.0,5.0,1,2020-11-30T12:59:08Z,Classification,lmacduffie2i,2929681706391290
crowd-journalism-enum,classification,4.0,1.0,4,2021-03-06T20:03:20Z,Classification,afines1m,7656950365697259
crowd-journalism-enum,classification,2.0,2.0,5,2021-02-16T14:52:57Z,Classification,ceynon1,3019362891386071
crowd-journalism-enum,classification,4.0,4.0,1,2021-01-22T00:45:54Z,Classification,sjablonski17,3978434926392435
crowd-journalism-enum,classification,2.0,4.0,1,2021-03-09T06:37:58Z,Classification,hjewissl,6481912937095001
crowd-journalism-enum,classification,3.0,1.0,1,2021-03-15T17:39:45Z,Classification,rrumble1v,7456485154657132
crowd-journalism-enum,classification,2.0,2.0,4,2020-12-07T00:10:41Z,Classification,dhawkeridge1l,9545719413886368
crowd-journalism-enum,classification,4.0,1.0,1,2021-01-02T23:19:10Z,Classification,ewillowsv,3024975968985515
crowd-journalism-enum,classification,,5.0,2,2020-12-26T15:07:07Z,Classification,bhammerich1o,4620448257742280
crowd-journalism-enum,classification,,5.0,2,2021-02-28T12:12:18Z,Classification,wperrittg,8958942769392683
crowd-journalism-enum,classification,1.0,5.0,3,2020-12-21T14:20:21Z,Classification,akynoch1q,8135512476385440
crowd-journalism-enum,classification,2.0,2.0,3,2020-12-04T05:58:14Z,Classification,mkeywood12,1085353265112230
crowd-journalism-enum,classification,2.0,3.0,2,2021-03-09T19:22:52Z,Classification,jwindross1g,1517496464004175
crowd-journalism-enum,classification,3.0,,5,2020-11-29T16:39:27Z,Classification,beasmans,6843512560995435
crowd-journalism-enum,classification,4.0,2.0,3,2021-01-03T16:11:52Z,Classification,sbaron27,2658056545512459
crowd-journalism-enum,classification,5.0,2.0,3,2021-03-16T14:25:19Z,Classification,jwindross1g,8545759097088148
crowd-journalism-enum,classification,2.0,4.0,4,2020-11-26T22:35:50Z,Classification,uvalentim7,6581392052638847
crowd-journalism-enum,classification,5.0,5.0,5,2020-12-22T01:13:07Z,Classification,kmelrossm,4980023372367348
crowd-journalism-enum,classification,3.0,4.0,4,2021-03-04T16:02:19Z,Classification,lbonnetteq,6937375867671395
crowd-journalism-enum,classification,4.0,5.0,4,2021-03-05T10:01:03Z,Classification,sjeffelsw,6595841447710715
crowd-journalism-enum,classification,4.0,,1,2020-11-21T02:57:41Z,Classification,bpawelczyk20,9465637980401108
crowd-journalism-enum,classification,5.0,3.0,5,2021-03-15T03:57:39Z,Classification,jrennles1b,8759759438932166
crowd-journalism-enum,classification,3.0,1.0,1,2021-01-28T09:54:52Z,Classification,gkilbane1a,3396507870426872
crowd-journalism-enum,classification,3.0,4.0,3,2021-03-09T03:41:35Z,Classification,lnewe4,1374088986368790
crowd-journalism-enum,classification,4.0,3.0,3,2021-01-21T00:03:45Z,Classification,sjeffelsw,1111339397555854
crowd-journalism-enum,classification,1.0,5.0,4,2021-01-19T19:24:45Z,Classification,jrennles1b,9824326399372628
crowd-journalism-enum,classification,1.0,5.0,4,2021-03-02T07:06:25Z,Classification,sjeffelsw,1111339397555854
crowd-journalism-enum,classification,4.0,4.0,4,2020-11-29T23:44:53Z,Classification,bpawelczyk20,2555673553308259
crowd-journalism-enum,classification,4.0,5.0,4,2021-01-31T00:43:41Z,Classification,nlodot,4438971780020238
crowd-journalism-enum,classification,4.0,,3,2020-12-01T10:25:13Z,Classification,dmeasom13,6554055480421958
crowd-journalism-enum,classification,1.0,4.0,2,2020-12-19T10:53:11Z,Classification,owissbey2e,6916414076839431
crowd-journalism-enum,classification,4.0,4.0,4,2021-03-15T20:13:21Z,Classification,ddownham1t,6962050241150581
crowd-journalism-enum,classification,5.0,4.0,3,2020-12-14T18:52:00Z,Classification,bpawelczyk20,9465637980401108
crowd-journalism-enum,classification,2.0,2.0,4,2021-02-07T04:46:30Z,Classification,rvasyukhnov9,1655980953500781
crowd-journalism-enum,classification,3.0,5.0,1,2021-01-25T04:06:56Z,Classification,hfaulconbridge2d,6504554525056476
crowd-journalism-enum,classification,3.0,2.0,2,2020-12-15T23:29:55Z,Classification,lnewe4,5433791480701491
crowd-journalism-enum,classification,4.0,5.0,1,2021-02-05T01:55:26Z,Classification,vscholery,5039751573375755
crowd-journalism-enum,classification,1.0,4.0,5,2021-02-12T04:01:31Z,Classification,ewillowsv,3024975968985515
crowd-journalism-enum,classification,4.0,5.0,5,2020-11-21T18:37:21Z,Classification,nlodot,2485091927196198
crowd-journalism-enum,classification,3.0,2.0,5,2020-12-18T21:06:43Z,Classification,jagge1k,4765297863416011
crowd-journalism-enum,classification,2.0,2.0,2,2021-03-04T01:40:44Z,Classification,rtuffrey2c,3104508333016773
crowd-journalism-enum,classification,3.0,,1,2021-03-16T07:40:14Z,Classification,beasmans,1855333743721362
crowd-journalism-enum,classification,3.0,,4,2021-03-13T18:45:27Z,Classification,ldacey2o,9832990177293684
crowd-journalism-enum,classification,4.0,2.0,4,2021-01-28T01:38:45Z,Classification,username,9381294889891912
crowd-journalism-enum,classification,1.0,3.0,1,2021-02-10T15:29:46Z,Classification,gfold2n,1842512251200227
crowd-journalism-enum,classification,2.0,4.0,2,2021-03-12T04:22:29Z,Classification,jtregea2b,4930263212843836
crowd-journalism-enum,classification,2.0,2.0,4,2020-11-27T19:54:35Z,Classification,jrennles1b,2267300712055699
crowd-journalism-enum,classification,,5.0,2,2021-01-25T16:14:54Z,Classification,rrumble1v,3182796390768903
crowd-journalism-enum,classification,3.0,1.0,3,2021-02-22T19:40:24Z,Classification,bpawelczyk20,7793834793149742
crowd-journalism-enum,classification,2.0,,1,2021-02-08T07:18:03Z,Classification,jagge1k,2079239668904646
crowd-journalism-enum,classification,1.0,4.0,3,2021-01-26T16:45:50Z,Classification,mkeywood12,9060438573175816
crowd-journalism-enum,classification,1.0,2.0,4,2021-02-08T00:40:17Z,Classification,ghawford1f,8858085090416011
crowd-journalism-enum,classification,1.0,4.0,5,2021-01-30T02:49:10Z,Classification,dhawkeridge1l,2967619329618520
crowd-journalism-enum,classification,4.0,5.0,5,2020-12-05T20:15:14Z,Classification,atape2h,8788782990990639
crowd-journalism-enum,classification,4.0,3.0,1,2020-11-28T05:22:54Z,Classification,beasmans,6843512560995435
crowd-journalism-enum,classification,2.0,3.0,1,2021-03-17T15:02:26Z,Classification,hjewissl,3375457984780645
crowd-journalism-enum,classification,,,5,2021-01-01T04:09:28Z,Classification,mhammilla,2019973146228120
crowd-journalism-enum,classification,,,1,2021-02-17T13:49:18Z,Classification,fyepiskopovj,4754042961036823
crowd-journalism-enum,classification,1.0,5.0,4,2021-02-13T08:10:25Z,Classification,rmeale0,9233780923519126
crowd-journalism-enum,classification,5.0,1.0,3,2021-02-20T16:56:53Z,Classification,hjewissl,5288687803799957
crowd-journalism-enum,classification,4.0,4.0,5,2021-01-14T01:23:55Z,Classification,anorley24,7800947871973638
crowd-journalism-enum,classification,5.0,5.0,1,2021-02-16T15:55:35Z,Classification,tnicely19,8122213890696848
crowd-journalism-enum,classification,4.0,,4,2020-12-24T22:55:36Z,Classification,swinship6,1559737493157748
crowd-journalism-enum,classification,5.0,3.0,4,2021-02-12T23:04:57Z,Classification,bhammerich1o,9065780979761564
crowd-journalism-enum,classification,3.0,4.0,3,2020-11-25T15:33:08Z,Classification,rtebb16,6834073720326419
crowd-journalism-enum,classification,2.0,,1,2021-02-23T14:22:57Z,Classification,greah26,3848859137461412
crowd-journalism-enum,classification,,4.0,5,2020-12-06T03:02:28Z,Classification,mstennerh,7501645983019562
crowd-journalism-enum,classification,5.0,2.0,1,2021-01-27T23:50:23Z,Classification,wperrittg,4836906294225993
crowd-journalism-enum,classification,5.0,1.0,1,2020-12-05T18:19:24Z,Classification,nlodot,3795911523895965
crowd-journalism-enum,classification,2.0,1.0,1,2021-02-11T09:50:07Z,Classification,rvasyukhnov9,1655980953500781
crowd-journalism-enum,classification,5.0,2.0,4,2021-01-21T08:42:37Z,Classification,rrumble1v,4838163460626543
crowd-journalism-enum,classification,2.0,,4,2021-02-14T18:08:17Z,Classification,username,7515202734738619
crowd-journalism-enum,classification,3.0,1.0,2,2021-02-23T01:10:44Z,Classification,jagge1k,8831642346294532
crowd-journalism-enum,classification,3.0,3.0,1,2020-12-28T12:35:20Z,Classification,nrawsthorn2f,9358946496648500
crowd-journalism-enum,classification,3.0,1.0,4,2021-02-23T05:02:52Z,Classification,jricharz23,6026096066242433
crowd-journalism-enum,classification,2.0,1.0,1,2020-12-27T12:02:49Z,Classification,jricharz23,2245400351348103
crowd-journalism-enum,classification,2.0,4.0,1,2021-02-06T19:07:01Z,Classification,bborrow29,3139177497107032
crowd-journalism-enum,classification,5.0,1.0,3,2021-03-04T00:46:35Z,Classification,ceynon1,7240722346967644
crowd-journalism-enum,classification,3.0,1.0,1,2021-02-19T02:32:57Z,Classification,dmeasom13,2540886996923945
crowd-journalism-enum,classification,4.0,3.0,2,2021-02-21T13:19:28Z,Classification,srisen1d,8724988853534845
crowd-journalism-enum,classification,5.0,2.0,5,2021-02-06T00:06:36Z,Classification,kbanasiki,9878268121608602
crowd-journalism-enum,classification,1.0,1.0,4,2020-12-09T15:00:40Z,Classification,beasmans,8536409683946265
crowd-journalism-enum,classification,2.0,2.0,5,2021-02-22T09:28:47Z,Classification,elarraway1p,6612443139019789
crowd-journalism-enum,classification,2.0,4.0,4,2021-01-08T23:19:13Z,Classification,djacomb1n,8725981576642406
crowd-journalism-enum,classification,4.0,4.0,4,2020-12-30T13:38:17Z,Classification,tcurmi1e,1585047487357024
crowd-journalism-enum,classification,1.0,5.0,5,2021-02-01T09:23:20Z,Classification,jrennles1b,5743816672542605
crowd-journalism-enum,classification,4.0,2.0,2,2021-03-07T11:47:20Z,Classification,ewillowsv,9028423623065440
crowd-journalism-enum,classification,2.0,3.0,2,2021-03-14T18:03:53Z,Classification,dhawkeridge1l,3496658800468004
crowd-journalism-enum,classification,5.0,5.0,1,2020-12-29T07:42:46Z,Classification,srisen1d,1481612511495415
crowd-journalism-enum,classification,4.0,5.0,5,2021-01-13T21:58:43Z,Classification,dhawkeridge1l,2317068734894677
crowd-journalism-enum,classification,3.0,2.0,4,2020-12-22T01:30:43Z,Classification,anorley24,7800947871973638
crowd-journalism-enum,classification,2.0,,3,2021-01-20T15:44:45Z,Classification,ghawford1f,4601611836155880
crowd-journalism-enum,classification,2.0,5.0,3,2021-03-16T02:44:41Z,Classification,clillistonee,3833386514620946
crowd-journalism-enum,classification,4.0,1.0,5,2021-02-24T14:14:42Z,Classification,wperrittg,9709828529108752
crowd-journalism-enum,classification,2.0,3.0,2,2020-12-14T22:05:05Z,Classification,dhawkeridge1l,4238981185467569
crowd-journalism-enum,classification,4.0,5.0,1,2020-11-20T16:01:05Z,Classification,djacomb1n,8924095596041619
crowd-journalism-enum,classification,5.0,4.0,1,2020-11-23T10:03:33Z,Classification,jrennles1b,9889835460261740
crowd-journalism-enum,classification,5.0,3.0,1,2021-02-22T02:26:07Z,Classification,kditchfield2m,5040277320840753
crowd-journalism-enum,classification,1.0,1.0,2,2021-02-17T05:32:09Z,Classification,mdeener1x,3313654274471363
crowd-journalism-enum,classification,,5.0,5,2020-11-26T13:18:43Z,Classification,rtebb16,6922446776850300
crowd-journalism-enum,classification,4.0,5.0,4,2021-02-21T16:52:04Z,Classification,llefriec1u,8478118976587054
crowd-journalism-enum,classification,3.0,1.0,3,2021-02-05T06:21:36Z,Classification,jtregea2b,1735457904102075
crowd-journalism-enum,classification,1.0,3.0,5,2021-01-27T12:46:19Z,Classification,abencher2p,2176686125830668
crowd-journalism-enum,classification,2.0,4.0,3,2021-02-24T07:55:19Z,Classification,tnicely19,8122213890696848
crowd-journalism-enum,classification,3.0,5.0,4,2021-01-26T10:50:44Z,Classification,bborrow29,5687359413529278
crowd-journalism-enum,classification,,5.0,1,2021-03-16T03:10:57Z,Classification,beasmans,1510529632130308
crowd-journalism-enum,classification,3.0,1.0,2,2021-02-16T00:19:40Z,Classification,dconigsby1h,2866144158664260
crowd-journalism-enum,classification,4.0,2.0,2,2021-01-07T18:12:19Z,Classification,hjewissl,5379020075387650
crowd-journalism-enum,classification,4.0,3.0,4,2021-03-10T20:56:25Z,Classification,atape2h,8788782990990639
crowd-journalism-enum,classification,5.0,5.0,3,2021-02-14T02:12:48Z,Classification,wperrittg,7859367773237305
crowd-journalism-enum,classification,3.0,3.0,1,2021-03-03T06:56:25Z,Classification,rmorican21,7961759114041367
crowd-journalism-enum,classification,4.0,3.0,3,2021-02-08T08:22:46Z,Classification,dconigsby1h,3539300181380974
crowd-journalism-enum,classification,2.0,5.0,4,2020-12-09T21:40:13Z,Classification,ewillowsv,4129602012331450
crowd-journalism-enum,classification,2.0,5.0,5,2020-12-01T18:56:04Z,Classification,hfaulconbridge2d,3431239201527539
crowd-journalism-enum,classification,5.0,3.0,3,2021-01-13T15:05:13Z,Classification,lmacalpyne1y,1657779210883433
crowd-journalism-enum,classification,2.0,2.0,1,2021-03-04T09:56:46Z,Classification,jtregea2b,1735457904102075
crowd-journalism-enum,classification,1.0,1.0,2,2020-12-09T00:55:09Z,Classification,wspencook1r,8704592308662676
crowd-journalism-enum,classification,2.0,5.0,5,2021-01-09T22:16:12Z,Classification,lhumbellp,2569222812280442
crowd-journalism-enum,classification,4.0,1.0,3,2021-02-16T05:38:18Z,Classification,aorrom2a,1303438899337139
crowd-journalism-enum,classification,1.0,,1,2021-02-15T14:31:02Z,Classification,mhammilla,8152619110722350
crowd-journalism-enum,classification,1.0,,4,2021-02-23T09:19:57Z,Classification,jagge1k,7479893089779991
crowd-journalism-enum,classification,1.0,3.0,1,2021-01-27T12:59:33Z,Classification,bhammerich1o,7029322770625266
crowd-journalism-enum,classification,4.0,2.0,4,2021-01-03T22:16:45Z,Classification,akynoch1q,9611773085338394
crowd-journalism-enum,classification,4.0,1.0,5,2021-01-24T18:42:28Z,Classification,beasmans,6718036194337756
crowd-journalism-enum,classification,3.0,4.0,1,2020-12-12T00:02:21Z,Classification,bhammerich1o,5600382224418215
crowd-journalism-enum,classification,5.0,4.0,2,2021-02-21T04:57:51Z,Classification,djacomb1n,8725981576642406
crowd-journalism-enum,classification,1.0,3.0,1,2021-02-21T02:19:24Z,Classification,fyepiskopovj,4754042961036823
crowd-journalism-enum,classification,2.0,3.0,4,2021-02-26T15:21:06Z,Classification,rvasyukhnov9,1655980953500781
crowd-journalism-enum,classification,3.0,1.0,1,2020-11-28T23:56:46Z,Classification,dmeasom13,3681812986911302
crowd-journalism-enum,classification,3.0,3.0,1,2020-12-27T20:50:30Z,Classification,mdeener1x,9637654370974180
crowd-journalism-enum,classification,2.0,1.0,3,2020-11-28T20:21:15Z,Classification,sbaron27,5705943913638917
crowd-journalism-enum,classification,3.0,5.0,3,2021-01-05T20:17:22Z,Classification,mdeener1x,9918706414640080
crowd-journalism-enum,classification,3.0,2.0,4,2021-01-01T00:44:26Z,Classification,cjoretn,6037199917107065
crowd-journalism-enum,classification,1.0,1.0,4,2021-02-16T17:51:37Z,Classification,rtuffrey2c,5405777235973444
crowd-journalism-enum,classification,3.0,1.0,4,2020-12-26T22:07:47Z,Classification,rmorican21,8367202741728527
crowd-journalism-enum,classification,2.0,2.0,1,2021-02-28T02:29:21Z,Classification,ddownham1t,9951081039685260
crowd-journalism-enum,classification,4.0,5.0,5,2021-01-20T04:24:42Z,Classification,adargieu,2249316843213299
crowd-journalism-enum,classification,4.0,3.0,4,2021-01-18T23:44:01Z,Classification,mdeener1x,6805275567453351
crowd-journalism-enum,classification,,2.0,1,2020-11-19T02:19:03Z,Classification,kbanasiki,3986582319686907
crowd-journalism-enum,classification,4.0,2.0,2,2021-02-09T05:00:39Z,Classification,atape2h,1808823006525202
crowd-journalism-enum,classification,,3.0,3,2021-02-28T15:55:42Z,Classification,swinship6,2029138836193201
crowd-journalism-enum,classification,1.0,5.0,5,2021-03-16T15:10:05Z,Classification,akynoch1q,9611773085338394
crowd-journalism-enum,classification,3.0,4.0,2,2021-02-21T20:28:40Z,Classification,tbartoshevich28,2811608520483344
crowd-journalism-enum,classification,3.0,5.0,3,2021-02-25T01:29:19Z,Classification,ddownham1t,6626611474695941
crowd-journalism-enum,classification,5.0,3.0,2,2020-12-04T00:00:46Z,Classification,tlearmond5,2090237120659662
crowd-journalism-enum,classification,3.0,2.0,2,2021-02-01T16:06:55Z,Classification,mkeywood12,8299741378130141
crowd-journalism-enum,classification,3.0,2.0,2,2020-12-09T10:47:15Z,Classification,beasmans,6843512560995435
crowd-journalism-enum,classification,2.0,1.0,2,2021-01-05T07:43:24Z,Classification,ewillowsv,6748832656719658
crowd-journalism-enum,classification,5.0,5.0,4,2021-02-28T18:24:56Z,Classification,tkiln2g,7189852311168896
crowd-journalism-enum,classification,4.0,2.0,4,2021-01-12T19:30:51Z,Classification,tnicely19,6829018192733332
crowd-journalism-enum,classification,1.0,1.0,3,2021-01-30T02:45:24Z,Classification,srisen1d,8724988853534845
crowd-journalism-enum,classification,1.0,1.0,3,2021-01-26T01:58:01Z,Classification,hjewissl,9560892438049278
crowd-journalism-enum,classification,1.0,,3,2020-12-30T19:50:29Z,Classification,jrennles1b,3204748221346884
crowd-journalism-enum,classification,1.0,2.0,2,2021-01-30T17:23:51Z,Classification,aorrom2a,2590911056786209
crowd-journalism-enum,classification,1.0,1.0,5,2021-02-28T12:43:56Z,Classification,dhawkeridge1l,2572854600143502
crowd-journalism-enum,classification,4.0,5.0,5,2021-03-03T07:26:48Z,Classification,dmeasom13,2540886996923945
crowd-journalism-enum,classification,5.0,5.0,5,2021-02-12T14:28:03Z,Classification,aorrom2a,9377863488891220
crowd-journalism-enum,classification,,2.0,2,2021-02-25T09:57:46Z,Classification,bborrow29,5687359413529278
crowd-journalism-enum,classification,4.0,,3,2021-01-01T00:55:09Z,Classification,lmacalpyne1y,2260829282950026
crowd-journalism-enum,classification,2.0,3.0,1,2021-01-15T09:59:22Z,Classification,jagge1k,9233673747584576
crowd-journalism-enum,classification,3.0,1.0,2,2021-02-24T01:51:15Z,Classification,elarraway1p,4091532696613382
crowd-journalism-enum,classification,1.0,1.0,1,2021-01-05T03:56:02Z,Classification,bkettowz,4983351482766753
crowd-journalism-enum,classification,,3.0,5,2021-02-19T14:22:14Z,Classification,rmorican21,7961759114041367
crowd-journalism-enum,classification,1.0,3.0,1,2020-12-12T23:21:01Z,Classification,jwindross1g,1517496464004175
crowd-journalism-enum,classification,1.0,2.0,3,2020-12-22T23:04:03Z,Classification,jrennles1b,5743816672542605
crowd-journalism-enum,classification,3.0,3.0,1,2021-01-05T16:47:16Z,Classification,mdeener1x,6165001339289025
crowd-journalism-enum,classification,5.0,3.0,1,2020-11-23T22:34:03Z,Classification,elarraway1p,7521312873077838
crowd-journalism-enum,classification,2.0,5.0,5,2021-01-17T05:05:09Z,Classification,akynoch1q,2132453393787256
crowd-journalism-enum,classification,3.0,3.0,4,2021-01-04T07:58:22Z,Classification,bhammerich1o,9087908566720468
crowd-journalism-enum,classification,2.0,1.0,2,2021-03-13T13:04:11Z,Classification,opilipyakc,6726618771268086
crowd-journalism-enum,classification,,2.0,5,2021-02-18T11:47:18Z,Classification,mdeener1x,9302624085596710
crowd-journalism-enum,classification,2.0,3.0,3,2020-11-22T08:14:30Z,Classification,lhumbellp,2937863877657443
crowd-journalism-enum,classification,4.0,1.0,4,2021-03-08T12:43:08Z,Classification,bkettowz,7051348314480590
crowd-journalism-enum,classification,2.0,3.0,4,2021-03-03T21:37:19Z,Classification,jricharz23,8135952162784396
crowd-journalism-enum,classification,1.0,4.0,4,2021-02-22T20:50:02Z,Classification,mdeener1x,6165001339289025
crowd-journalism-enum,classification,3.0,5.0,1,2021-01-23T07:07:52Z,Classification,cjaggers1s,3749316123080121
crowd-journalism-enum,classification,4.0,5.0,2,2020-12-22T09:25:52Z,Classification,jrennles1b,5743816672542605
crowd-journalism-enum,classification,3.0,,4,2021-02-04T19:51:54Z,Classification,bborrow29,2735159440043903
crowd-journalism-enum,classification,5.0,5.0,5,2021-03-02T16:44:37Z,Classification,dcaspell2q,6932440817448685
crowd-journalism-enum,classification,1.0,3.0,3,2021-02-25T00:50:17Z,Classification,abasindaled,7118835905922197
crowd-journalism-enum,classification,1.0,2.0,5,2021-02-19T15:23:18Z,Classification,mstennerh,5224630320113477
crowd-journalism-enum,classification,3.0,4.0,5,2020-11-23T16:16:10Z,Classification,nrawsthorn2f,4426554965503823
crowd-journalism-enum,classification,,5.0,5,2020-12-05T04:46:06Z,Classification,akynoch1q,3511109060854381
crowd-journalism-enum,classification,5.0,5.0,5,2020-12-30T09:00:29Z,Classification,sjeffelsw,6726347465674328
crowd-journalism-enum,classification,2.0,4.0,2,2021-01-20T17:47:11Z,Classification,jricharz23,7407327460290327
crowd-journalism-enum,classification,,2.0,3,2021-02-27T03:51:48Z,Classification,ddownham1t,6626611474695941
crowd-journalism-enum,classification,3.0,2.0,3,2021-01-18T09:50:11Z,Classification,fsirman1z,6879462571172656
crowd-journalism-enum,classification,5.0,5.0,4,2021-01-15T17:47:07Z,Classification,dconigsby1h,5034322069679125
crowd-journalism-enum,classification,,4.0,4,2021-02-04T18:26:57Z,Classification,dcaspell2q,4523104715239718
crowd-journalism-enum,classification,4.0,3.0,3,2021-02-25T07:32:27Z,Classification,opilipyakc,8180294236138268
crowd-journalism-enum,classification,2.0,4.0,1,2020-12-02T17:24:46Z,Classification,jrennles1b,4666087195525331
crowd-journalism-enum,classification,2.0,3.0,3,2020-11-30T17:30:45Z,Classification,adargieu,2717397837388344
crowd-journalism-enum,classification,3.0,5.0,4,2020-12-20T13:14:02Z,Classification,mhammilla,9489605487659266
crowd-journalism-enum,classification,1.0,4.0,4,2021-03-01T12:19:38Z,Classification,ddownham1t,6080039477910757
crowd-journalism-enum,classification,2.0,3.0,5,2021-02-24T12:34:29Z,Classification,ceynon1,3019362891386071
crowd-journalism-enum,classification,1.0,2.0,3,2021-01-26T00:54:52Z,Classification,nspanswick2k,2869457288357264
crowd-journalism-enum,classification,3.0,,3,2021-01-31T20:35:18Z,Classification,jwindross1g,7262729585883540
crowd-journalism-enum,classification,4.0,5.0,3,2021-01-29T13:52:16Z,Classification,cjoretn,6144990250827644
crowd-journalism-enum,classification,3.0,1.0,4,2021-01-10T07:48:07Z,Classification,ddownham1t,2682799522523406
crowd-journalism-enum,classification,1.0,5.0,3,2020-12-01T06:02:32Z,Classification,tfinlaisonr,2397092554886681
crowd-journalism-enum,classification,5.0,4.0,1,2020-12-12T15:30:57Z,Classification,uvalentim7,4872007951980618
crowd-journalism-enum,classification,5.0,1.0,4,2021-01-21T00:27:18Z,Classification,cwelford1w,9715465176081456
crowd-journalism-enum,classification,,3.0,1,2020-11-21T22:38:40Z,Classification,bblint1j,8561764422759124
crowd-journalism-enum,classification,3.0,5.0,2,2020-12-27T22:33:34Z,Classification,bkettowz,6210418715272289
crowd-journalism-enum,classification,4.0,5.0,1,2020-12-06T13:11:42Z,Classification,kditchfield2m,5040277320840753
crowd-journalism-enum,classification,2.0,3.0,3,2020-11-26T12:02:50Z,Classification,pchadwyck2,2522785881600622
crowd-journalism-enum,classification,2.0,1.0,2,2020-12-08T18:49:29Z,Classification,sbostickx,5552059053755830
crowd-journalism-enum,classification,,,1,2021-03-08T20:48:05Z,Classification,jrennles1b,8759759438932166
crowd-journalism-enum,classification,5.0,2.0,4,2021-03-14T20:00:38Z,Classification,lmacduffie2i,7752989283200275
crowd-journalism-enum,classification,3.0,2.0,1,2021-01-08T01:27:54Z,Classification,hjewissl,4721362723882241
crowd-journalism-enum,classification,1.0,1.0,3,2021-02-24T07:32:21Z,Classification,pchadwyck2,2522785881600622
crowd-journalism-enum,classification,2.0,5.0,4,2021-01-12T00:24:13Z,Classification,glewtey2j,9579547582148192
crowd-journalism-enum,classification,5.0,1.0,3,2020-12-06T18:02:37Z,Classification,abencher2p,2176686125830668
crowd-journalism-enum,classification,,2.0,5,2020-11-22T18:04:04Z,Classification,dhawkeridge1l,9545719413886368
crowd-journalism-enum,classification,,2.0,4,2020-12-07T08:10:50Z,Classification,jrennles1b,8759759438932166
crowd-journalism-enum,classification,3.0,5.0,2,2020-12-08T20:25:01Z,Classification,rmeale0,8085201161523775
crowd-journalism-enum,classification,4.0,3.0,3,2021-02-04T12:33:50Z,Classification,cjoretn,5833717805346661
crowd-journalism-enum,classification,4.0,1.0,3,2020-12-12T10:09:24Z,Classification,cwelford1w,2814754939765275
crowd-journalism-enum,classification,2.0,5.0,3,2021-01-03T06:42:10Z,Classification,djacomb1n,8924095596041619
crowd-journalism-enum,classification,1.0,3.0,1,2021-03-02T08:58:07Z,Classification,anorley24,7800947871973638
crowd-journalism-enum,classification,2.0,5.0,2,2021-01-21T02:02:17Z,Classification,owissbey2e,6916414076839431
crowd-journalism-enum,classification,5.0,1.0,3,2021-02-19T17:38:36Z,Classification,afines1m,9912408249692924
crowd-journalism-enum,classification,1.0,,1,2021-01-18T17:13:44Z,Classification,dhawkeridge1l,2317068734894677
crowd-journalism-enum,classification,5.0,2.0,4,2021-02-12T04:19:10Z,Classification,adargieu,9220818766178268
crowd-journalism-enum,classification,5.0,1.0,3,2021-02-21T23:45:41Z,Classification,dcaspell2q,6704188122177051
crowd-journalism-enum,classification,5.0,1.0,4,2021-02-17T19:44:03Z,Classification,opilipyakc,8394699022056792
crowd-journalism-enum,classification,5.0,2.0,5,2021-02-05T15:30:05Z,Classification,elarraway1p,8627192601060746
crowd-journalism-enum,classification,1.0,3.0,2,2020-12-11T07:43:42Z,Classification,epreo,5130858740488661
crowd-journalism-enum,classification,3.0,1.0,4,2021-03-18T17:31:47Z,Classification,cgrahlmans2r,8482665724185057
crowd-journalism-enum,classification,3.0,2.0,4,2020-11-27T20:23:37Z,Classification,glewtey2j,9579547582148192
crowd-journalism-enum,classification,1.0,4.0,4,2021-03-09T14:41:27Z,Classification,wperrittg,5876906448133662
crowd-journalism-enum,classification,1.0,2.0,1,2020-12-23T03:53:34Z,Classification,sbostickx,1084726109899920
